; ##############################################################################
; #                                                                            #
; #                     Not So Terible GCode Generator Mk8                     #
; #                       ~~~~  Now with more C++!  ~~~~                       #
; #                                                                            #
; ##############################################################################
;
; File : Duck.png
;
; Outline Speed : 50
; Infill Speed  : 60
; Travel Speed  : 500
; Laser Power   : 192
;
; Infill Stats
;
; Burn Distance   : 24283.4mm
; Travel Distance : 303.074mm
; Efficiency      : 98.7673%
; Estimated Time  : 4053s
;
; ##############################################################################
; #                                                                            #
; #                             GCode Starts Here!                             #
; #                                                                            #
; ##############################################################################
;
; ABSOLUTE POSITIONING
;
G90
;
; IMAGE START
;
;
; INFILL START
;
G90 G1 X40.6 Y13.1 F500
M03 S192
G90 G1 X67 Y13.1 F60
M05
G90 G1 X67 Y13.2 F500
M03 S192
G90 G1 X40.6 Y13.2 F60
M05
G90 G1 X40.6 Y13.3 F500
M03 S192
G90 G1 X67 Y13.3 F60
M05
G90 G1 X67 Y13.4 F500
M03 S192
G90 G1 X40.6 Y13.4 F60
M05
G90 G1 X40.5 Y13.5 F500
M03 S192
G90 G1 X67.1 Y13.5 F60
M05
G90 G1 X67.1 Y13.6 F500
M03 S192
G90 G1 X40.5 Y13.6 F60
M05
G90 G1 X40.5 Y13.7 F500
M03 S192
G90 G1 X67.1 Y13.7 F60
M05
G90 G1 X67.1 Y13.8 F500
M03 S192
G90 G1 X40.5 Y13.8 F60
M05
G90 G1 X40.5 Y13.9 F500
M03 S192
G90 G1 X67.1 Y13.9 F60
M05
G90 G1 X67.1 Y14 F500
M03 S192
G90 G1 X40.5 Y14 F60
M05
G90 G1 X40.5 Y14.1 F500
M03 S192
G90 G1 X67.1 Y14.1 F60
M05
G90 G1 X67.1 Y14.2 F500
M03 S192
G90 G1 X40.5 Y14.2 F60
M05
G90 G1 X40.6 Y14.3 F500
M03 S192
G90 G1 X67 Y14.3 F60
M05
G90 G1 X67 Y14.4 F500
M03 S192
G90 G1 X40.6 Y14.4 F60
M05
G90 G1 X40.6 Y14.5 F500
M03 S192
G90 G1 X67 Y14.5 F60
M05
G90 G1 X67 Y14.6 F500
M03 S192
G90 G1 X40.6 Y14.6 F60
M05
G90 G1 X40.7 Y14.7 F500
M03 S192
G90 G1 X67 Y14.7 F60
M05
G90 G1 X66.9 Y14.8 F500
M03 S192
G90 G1 X40.7 Y14.8 F60
M05
G90 G1 X40.8 Y14.9 F500
M03 S192
G90 G1 X66.8 Y14.9 F60
M05
G90 G1 X66.8 Y15 F500
M03 S192
G90 G1 X40.8 Y15 F60
M05
G90 G1 X40.9 Y15.1 F500
M03 S192
G90 G1 X66.7 Y15.1 F60
M05
G90 G1 X66.6 Y15.2 F500
M03 S192
G90 G1 X41 Y15.2 F60
M05
G90 G1 X41.1 Y15.3 F500
M03 S192
G90 G1 X66.5 Y15.3 F60
M05
G90 G1 X66.4 Y15.4 F500
M03 S192
G90 G1 X41.2 Y15.4 F60
M05
G90 G1 X41.4 Y15.5 F500
M03 S192
G90 G1 X66.3 Y15.5 F60
M05
G90 G1 X66.2 Y15.6 F500
M03 S192
G90 G1 X41.5 Y15.6 F60
M05
G90 G1 X41.8 Y15.7 F500
M03 S192
G90 G1 X65.9 Y15.7 F60
M05
G90 G1 X65.7 Y15.8 F500
M03 S192
G90 G1 X41.9 Y15.8 F60
M05
G90 G1 X40.7 Y13 F500
M03 S192
G90 G1 X67 Y13 F60
M05
G90 G1 X66.9 Y12.9 F500
M03 S192
G90 G1 X40.7 Y12.9 F60
M05
G90 G1 X40.8 Y12.8 F500
M03 S192
G90 G1 X66.8 Y12.8 F60
M05
G90 G1 X66.8 Y12.7 F500
M03 S192
G90 G1 X40.8 Y12.7 F60
M05
G90 G1 X40.9 Y12.6 F500
M03 S192
G90 G1 X66.7 Y12.6 F60
M05
G90 G1 X66.6 Y12.5 F500
M03 S192
G90 G1 X41 Y12.5 F60
M05
G90 G1 X41.1 Y12.4 F500
M03 S192
G90 G1 X66.5 Y12.4 F60
M05
G90 G1 X66.4 Y12.3 F500
M03 S192
G90 G1 X41.2 Y12.3 F60
M05
G90 G1 X41.3 Y12.2 F500
M03 S192
G90 G1 X66.3 Y12.2 F60
M05
G90 G1 X66.2 Y12.1 F500
M03 S192
G90 G1 X41.4 Y12.1 F60
M05
G90 G1 X41.7 Y12 F500
M03 S192
G90 G1 X65.9 Y12 F60
M05
G90 G1 X65.8 Y11.9 F500
M03 S192
G90 G1 X41.9 Y11.9 F60
M05
G90 G1 X47.2 Y15.9 F500
M03 S192
G90 G1 X52.7 Y15.9 F60
M05
G90 G1 X52.6 Y16 F500
M03 S192
G90 G1 X47.3 Y16 F60
M05
G90 G1 X47.3 Y16.1 F500
M03 S192
G90 G1 X52.6 Y16.1 F60
M05
G90 G1 X52.5 Y16.2 F500
M03 S192
G90 G1 X47.3 Y16.2 F60
M05
G90 G1 X47.3 Y16.3 F500
M03 S192
G90 G1 X52.5 Y16.3 F60
M05
G90 G1 X52.5 Y16.4 F500
M03 S192
G90 G1 X47.3 Y16.4 F60
M05
G90 G1 X47.3 Y16.5 F500
M03 S192
G90 G1 X52.6 Y16.5 F60
M05
G90 G1 X52.6 Y16.6 F500
M03 S192
G90 G1 X47.3 Y16.6 F60
M05
G90 G1 X47.3 Y16.7 F500
M03 S192
G90 G1 X52.6 Y16.7 F60
M05
G90 G1 X52.6 Y16.8 F500
M03 S192
G90 G1 X47.3 Y16.8 F60
M05
G90 G1 X47.3 Y16.9 F500
M03 S192
G90 G1 X52.6 Y16.9 F60
M05
G90 G1 X52.6 Y17 F500
M03 S192
G90 G1 X47.3 Y17 F60
M05
G90 G1 X47.3 Y17.1 F500
M03 S192
G90 G1 X52.6 Y17.1 F60
M05
G90 G1 X52.6 Y17.2 F500
M03 S192
G90 G1 X47.3 Y17.2 F60
M05
G90 G1 X47.3 Y17.3 F500
M03 S192
G90 G1 X52.6 Y17.3 F60
M05
G90 G1 X52.6 Y17.4 F500
M03 S192
G90 G1 X47.3 Y17.4 F60
M05
G90 G1 X47.3 Y17.5 F500
M03 S192
G90 G1 X52.6 Y17.5 F60
M05
G90 G1 X52.6 Y17.6 F500
M03 S192
G90 G1 X47.3 Y17.6 F60
M05
G90 G1 X47.3 Y17.7 F500
M03 S192
G90 G1 X52.6 Y17.7 F60
M05
G90 G1 X52.6 Y17.8 F500
M03 S192
G90 G1 X47.3 Y17.8 F60
M05
G90 G1 X47.3 Y17.9 F500
M03 S192
G90 G1 X52.6 Y17.9 F60
M05
G90 G1 X52.6 Y18 F500
M03 S192
G90 G1 X47.3 Y18 F60
M05
G90 G1 X47.3 Y18.1 F500
M03 S192
G90 G1 X52.6 Y18.1 F60
M05
G90 G1 X52.6 Y18.2 F500
M03 S192
G90 G1 X47.3 Y18.2 F60
M05
G90 G1 X47.3 Y18.3 F500
M03 S192
G90 G1 X52.6 Y18.3 F60
M05
G90 G1 X52.6 Y18.4 F500
M03 S192
G90 G1 X47.3 Y18.4 F60
M05
G90 G1 X47.3 Y18.5 F500
M03 S192
G90 G1 X52.6 Y18.5 F60
M05
G90 G1 X52.6 Y18.6 F500
M03 S192
G90 G1 X47.3 Y18.6 F60
M05
G90 G1 X47.3 Y18.7 F500
M03 S192
G90 G1 X52.6 Y18.7 F60
M05
G90 G1 X52.6 Y18.8 F500
M03 S192
G90 G1 X47.3 Y18.8 F60
M05
G90 G1 X47.3 Y18.9 F500
M03 S192
G90 G1 X52.6 Y18.9 F60
M05
G90 G1 X52.6 Y19 F500
M03 S192
G90 G1 X47.3 Y19 F60
M05
G90 G1 X47.3 Y19.1 F500
M03 S192
G90 G1 X52.6 Y19.1 F60
M05
G90 G1 X52.6 Y19.2 F500
M03 S192
G90 G1 X47.3 Y19.2 F60
M05
G90 G1 X47.3 Y19.3 F500
M03 S192
G90 G1 X52.6 Y19.3 F60
M05
G90 G1 X52.6 Y19.4 F500
M03 S192
G90 G1 X47.3 Y19.4 F60
M05
G90 G1 X47.3 Y19.5 F500
M03 S192
G90 G1 X52.6 Y19.5 F60
M05
G90 G1 X52.6 Y19.6 F500
M03 S192
G90 G1 X47.3 Y19.6 F60
M05
G90 G1 X47.3 Y19.7 F500
M03 S192
G90 G1 X52.6 Y19.7 F60
M05
G90 G1 X52.6 Y19.8 F500
M03 S192
G90 G1 X47.3 Y19.8 F60
M05
G90 G1 X47.3 Y19.9 F500
M03 S192
G90 G1 X52.6 Y19.9 F60
M05
G90 G1 X52.6 Y20 F500
M03 S192
G90 G1 X47.3 Y20 F60
M05
G90 G1 X47.3 Y20.1 F500
M03 S192
G90 G1 X52.6 Y20.1 F60
M05
G90 G1 X52.6 Y20.2 F500
M03 S192
G90 G1 X47.3 Y20.2 F60
M05
G90 G1 X47.3 Y20.3 F500
M03 S192
G90 G1 X52.6 Y20.3 F60
M05
G90 G1 X52.6 Y20.4 F500
M03 S192
G90 G1 X47.3 Y20.4 F60
M05
G90 G1 X47.3 Y20.5 F500
M03 S192
G90 G1 X52.6 Y20.5 F60
M05
G90 G1 X52.6 Y20.6 F500
M03 S192
G90 G1 X47.3 Y20.6 F60
M05
G90 G1 X47.3 Y20.7 F500
M03 S192
G90 G1 X52.6 Y20.7 F60
M05
G90 G1 X52.6 Y20.8 F500
M03 S192
G90 G1 X47.3 Y20.8 F60
M05
G90 G1 X47.3 Y20.9 F500
M03 S192
G90 G1 X52.6 Y20.9 F60
M05
G90 G1 X52.6 Y21 F500
M03 S192
G90 G1 X47.3 Y21 F60
M05
G90 G1 X47.3 Y21.1 F500
M03 S192
G90 G1 X52.6 Y21.1 F60
M05
G90 G1 X52.6 Y21.2 F500
M03 S192
G90 G1 X47.3 Y21.2 F60
M05
G90 G1 X47.3 Y21.3 F500
M03 S192
G90 G1 X52.6 Y21.3 F60
M05
G90 G1 X52.6 Y21.4 F500
M03 S192
G90 G1 X47.3 Y21.4 F60
M05
G90 G1 X47.3 Y21.5 F500
M03 S192
G90 G1 X52.6 Y21.5 F60
M05
G90 G1 X52.6 Y21.6 F500
M03 S192
G90 G1 X47.3 Y21.6 F60
M05
G90 G1 X47.3 Y21.7 F500
M03 S192
G90 G1 X52.6 Y21.7 F60
M05
G90 G1 X52.6 Y21.8 F500
M03 S192
G90 G1 X47.3 Y21.8 F60
M05
G90 G1 X47.3 Y21.9 F500
M03 S192
G90 G1 X52.6 Y21.9 F60
M05
G90 G1 X52.6 Y22 F500
M03 S192
G90 G1 X47.3 Y22 F60
M05
G90 G1 X47.3 Y22.1 F500
M03 S192
G90 G1 X52.5 Y22.1 F60
M05
G90 G1 X52.6 Y22.2 F500
M03 S192
G90 G1 X47.3 Y22.2 F60
M05
G90 G1 X47.3 Y22.3 F500
M03 S192
G90 G1 X52.6 Y22.3 F60
M05
G90 G1 X52.7 Y22.4 F500
M03 S192
G90 G1 X47.3 Y22.4 F60
M05
G90 G1 X47.3 Y22.5 F500
M03 S192
G90 G1 X63.8 Y22.5 F60
M05
G90 G1 X63.8 Y22.6 F500
M03 S192
G90 G1 X47.3 Y22.6 F60
M05
G90 G1 X47.3 Y22.7 F500
M03 S192
G90 G1 X63.8 Y22.7 F60
M05
G90 G1 X63.8 Y22.8 F500
M03 S192
G90 G1 X47.3 Y22.8 F60
M05
G90 G1 X47.3 Y22.9 F500
M03 S192
G90 G1 X63.8 Y22.9 F60
M05
G90 G1 X63.8 Y23 F500
M03 S192
G90 G1 X47.3 Y23 F60
M05
G90 G1 X47.3 Y23.1 F500
M03 S192
G90 G1 X63.8 Y23.1 F60
M05
G90 G1 X63.8 Y23.2 F500
M03 S192
G90 G1 X47.3 Y23.2 F60
M05
G90 G1 X47.2 Y23.3 F500
M03 S192
G90 G1 X63.8 Y23.3 F60
M05
G90 G1 X63.8 Y23.4 F500
M03 S192
G90 G1 X47 Y23.4 F60
M05
G90 G1 X46.7 Y23.5 F500
M03 S192
G90 G1 X63.8 Y23.5 F60
M05
G90 G1 X63.8 Y23.6 F500
M03 S192
G90 G1 X46.5 Y23.6 F60
M05
G90 G1 X46.1 Y23.7 F500
M03 S192
G90 G1 X63.9 Y23.7 F60
M05
G90 G1 X64 Y23.8 F500
M03 S192
G90 G1 X45.9 Y23.8 F60
M05
G90 G1 X45.5 Y23.9 F500
M03 S192
G90 G1 X64.4 Y23.9 F60
M05
G90 G1 X64.6 Y24 F500
M03 S192
G90 G1 X45.3 Y24 F60
M05
G90 G1 X44.9 Y24.1 F500
M03 S192
G90 G1 X65 Y24.1 F60
M05
G90 G1 X65.1 Y24.2 F500
M03 S192
G90 G1 X44.7 Y24.2 F60
M05
G90 G1 X44.4 Y24.3 F500
M03 S192
G90 G1 X65.5 Y24.3 F60
M05
G90 G1 X65.6 Y24.4 F500
M03 S192
G90 G1 X44.2 Y24.4 F60
M05
G90 G1 X43.9 Y24.5 F500
M03 S192
G90 G1 X66 Y24.5 F60
M05
G90 G1 X66.1 Y24.6 F500
M03 S192
G90 G1 X43.7 Y24.6 F60
M05
G90 G1 X43.4 Y24.7 F500
M03 S192
G90 G1 X66.5 Y24.7 F60
M05
G90 G1 X66.6 Y24.8 F500
M03 S192
G90 G1 X43.3 Y24.8 F60
M05
G90 G1 X42.9 Y24.9 F500
M03 S192
G90 G1 X66.9 Y24.9 F60
M05
G90 G1 X67 Y25 F500
M03 S192
G90 G1 X42.8 Y25 F60
M05
G90 G1 X42.5 Y25.1 F500
M03 S192
G90 G1 X67.3 Y25.1 F60
M05
G90 G1 X67.4 Y25.2 F500
M03 S192
G90 G1 X42.4 Y25.2 F60
M05
G90 G1 X42.1 Y25.3 F500
M03 S192
G90 G1 X67.8 Y25.3 F60
M05
G90 G1 X67.9 Y25.4 F500
M03 S192
G90 G1 X42 Y25.4 F60
M05
G90 G1 X41.7 Y25.5 F500
M03 S192
G90 G1 X68.1 Y25.5 F60
M05
G90 G1 X68.2 Y25.6 F500
M03 S192
G90 G1 X41.6 Y25.6 F60
M05
G90 G1 X41.3 Y25.7 F500
M03 S192
G90 G1 X68.5 Y25.7 F60
M05
G90 G1 X68.6 Y25.8 F500
M03 S192
G90 G1 X41.2 Y25.8 F60
M05
G90 G1 X41 Y25.9 F500
M03 S192
G90 G1 X68.9 Y25.9 F60
M05
G90 G1 X69 Y26 F500
M03 S192
G90 G1 X40.9 Y26 F60
M05
G90 G1 X40.6 Y26.1 F500
M03 S192
G90 G1 X69.2 Y26.1 F60
M05
G90 G1 X69.3 Y26.2 F500
M03 S192
G90 G1 X40.5 Y26.2 F60
M05
G90 G1 X40.3 Y26.3 F500
M03 S192
G90 G1 X69.5 Y26.3 F60
M05
G90 G1 X69.7 Y26.4 F500
M03 S192
G90 G1 X40.2 Y26.4 F60
M05
G90 G1 X40 Y26.5 F500
M03 S192
G90 G1 X69.9 Y26.5 F60
M05
G90 G1 X70 Y26.6 F500
M03 S192
G90 G1 X39.9 Y26.6 F60
M05
G90 G1 X39.6 Y26.7 F500
M03 S192
G90 G1 X70.2 Y26.7 F60
M05
G90 G1 X70.3 Y26.8 F500
M03 S192
G90 G1 X39.5 Y26.8 F60
M05
G90 G1 X39.4 Y26.9 F500
M03 S192
G90 G1 X70.5 Y26.9 F60
M05
G90 G1 X70.6 Y27 F500
M03 S192
G90 G1 X39.2 Y27 F60
M05
G90 G1 X39 Y27.1 F500
M03 S192
G90 G1 X70.8 Y27.1 F60
M05
G90 G1 X70.9 Y27.2 F500
M03 S192
G90 G1 X38.9 Y27.2 F60
M05
G90 G1 X38.8 Y27.3 F500
M03 S192
G90 G1 X71.1 Y27.3 F60
M05
G90 G1 X71.2 Y27.4 F500
M03 S192
G90 G1 X38.6 Y27.4 F60
M05
G90 G1 X38.5 Y27.5 F500
M03 S192
G90 G1 X71.4 Y27.5 F60
M05
G90 G1 X71.5 Y27.6 F500
M03 S192
G90 G1 X38.3 Y27.6 F60
M05
G90 G1 X38.2 Y27.7 F500
M03 S192
G90 G1 X71.7 Y27.7 F60
M05
G90 G1 X71.8 Y27.8 F500
M03 S192
G90 G1 X38.1 Y27.8 F60
M05
G90 G1 X37.9 Y27.9 F500
M03 S192
G90 G1 X71.9 Y27.9 F60
M05
G90 G1 X72 Y28 F500
M03 S192
G90 G1 X37.8 Y28 F60
M05
G90 G1 X37.7 Y28.1 F500
M03 S192
G90 G1 X72.2 Y28.1 F60
M05
G90 G1 X72.3 Y28.2 F500
M03 S192
G90 G1 X37.5 Y28.2 F60
M05
G90 G1 X37.4 Y28.3 F500
M03 S192
G90 G1 X72.4 Y28.3 F60
M05
G90 G1 X72.6 Y28.4 F500
M03 S192
G90 G1 X37.3 Y28.4 F60
M05
G90 G1 X37.2 Y28.5 F500
M03 S192
G90 G1 X72.7 Y28.5 F60
M05
G90 G1 X72.8 Y28.6 F500
M03 S192
G90 G1 X37 Y28.6 F60
M05
G90 G1 X36.9 Y28.7 F500
M03 S192
G90 G1 X72.9 Y28.7 F60
M05
G90 G1 X73 Y28.8 F500
M03 S192
G90 G1 X36.8 Y28.8 F60
M05
G90 G1 X36.7 Y28.9 F500
M03 S192
G90 G1 X73.1 Y28.9 F60
M05
G90 G1 X73.3 Y29 F500
M03 S192
G90 G1 X36.5 Y29 F60
M05
G90 G1 X36.4 Y29.1 F500
M03 S192
G90 G1 X73.4 Y29.1 F60
M05
G90 G1 X73.5 Y29.2 F500
M03 S192
G90 G1 X36.3 Y29.2 F60
M05
G90 G1 X36.2 Y29.3 F500
M03 S192
G90 G1 X73.6 Y29.3 F60
M05
G90 G1 X73.8 Y29.4 F500
M03 S192
G90 G1 X36.1 Y29.4 F60
M05
G90 G1 X36 Y29.5 F500
M03 S192
G90 G1 X73.9 Y29.5 F60
M05
G90 G1 X74 Y29.6 F500
M03 S192
G90 G1 X35.9 Y29.6 F60
M05
G90 G1 X35.8 Y29.7 F500
M03 S192
G90 G1 X74.1 Y29.7 F60
M05
G90 G1 X74.2 Y29.8 F500
M03 S192
G90 G1 X35.7 Y29.8 F60
M05
G90 G1 X35.6 Y29.9 F500
M03 S192
G90 G1 X74.3 Y29.9 F60
M05
G90 G1 X74.4 Y30 F500
M03 S192
G90 G1 X35.5 Y30 F60
M05
G90 G1 X35.4 Y30.1 F500
M03 S192
G90 G1 X74.5 Y30.1 F60
M05
G90 G1 X74.6 Y30.2 F500
M03 S192
G90 G1 X35.3 Y30.2 F60
M05
G90 G1 X35.2 Y30.3 F500
M03 S192
G90 G1 X74.7 Y30.3 F60
M05
G90 G1 X74.8 Y30.4 F500
M03 S192
G90 G1 X35.1 Y30.4 F60
M05
G90 G1 X35 Y30.5 F500
M03 S192
G90 G1 X74.9 Y30.5 F60
M05
G90 G1 X75 Y30.6 F500
M03 S192
G90 G1 X34.9 Y30.6 F60
M05
G90 G1 X34.8 Y30.7 F500
M03 S192
G90 G1 X75.1 Y30.7 F60
M05
G90 G1 X75.2 Y30.8 F500
M03 S192
G90 G1 X34.7 Y30.8 F60
M05
G90 G1 X34.6 Y30.9 F500
M03 S192
G90 G1 X75.3 Y30.9 F60
M05
G90 G1 X75.4 Y31 F500
M03 S192
G90 G1 X34.5 Y31 F60
M05
G90 G1 X34.4 Y31.1 F500
M03 S192
G90 G1 X75.5 Y31.1 F60
M05
G90 G1 X75.6 Y31.2 F500
M03 S192
G90 G1 X34.3 Y31.2 F60
M05
G90 G1 X34.2 Y31.3 F500
M03 S192
G90 G1 X75.6 Y31.3 F60
M05
G90 G1 X75.7 Y31.4 F500
M03 S192
G90 G1 X34.1 Y31.4 F60
M05
G90 G1 X34 Y31.5 F500
M03 S192
G90 G1 X75.8 Y31.5 F60
M05
G90 G1 X75.9 Y31.6 F500
M03 S192
G90 G1 X33.9 Y31.6 F60
M05
G90 G1 X33.9 Y31.7 F500
M03 S192
G90 G1 X76 Y31.7 F60
M05
G90 G1 X76 Y31.8 F500
M03 S192
G90 G1 X33.8 Y31.8 F60
M05
G90 G1 X33.7 Y31.9 F500
M03 S192
G90 G1 X76.1 Y31.9 F60
M05
G90 G1 X76.2 Y32 F500
M03 S192
G90 G1 X33.6 Y32 F60
M05
G90 G1 X33.5 Y32.1 F500
M03 S192
G90 G1 X76.3 Y32.1 F60
M05
G90 G1 X76.4 Y32.2 F500
M03 S192
G90 G1 X33.5 Y32.2 F60
M05
G90 G1 X33.4 Y32.3 F500
M03 S192
G90 G1 X76.5 Y32.3 F60
M05
G90 G1 X76.6 Y32.4 F500
M03 S192
G90 G1 X33.3 Y32.4 F60
M05
G90 G1 X33.2 Y32.5 F500
M03 S192
G90 G1 X76.6 Y32.5 F60
M05
G90 G1 X76.7 Y32.6 F500
M03 S192
G90 G1 X33.1 Y32.6 F60
M05
G90 G1 X33 Y32.7 F500
M03 S192
G90 G1 X76.8 Y32.7 F60
M05
G90 G1 X76.8 Y32.8 F500
M03 S192
G90 G1 X33 Y32.8 F60
M05
G90 G1 X32.9 Y32.9 F500
M03 S192
G90 G1 X76.9 Y32.9 F60
M05
G90 G1 X77 Y33 F500
M03 S192
G90 G1 X32.8 Y33 F60
M05
G90 G1 X32.8 Y33.1 F500
M03 S192
G90 G1 X77.1 Y33.1 F60
M05
G90 G1 X77.2 Y33.2 F500
M03 S192
G90 G1 X32.7 Y33.2 F60
M05
G90 G1 X32.6 Y33.3 F500
M03 S192
G90 G1 X77.3 Y33.3 F60
M05
G90 G1 X77.3 Y33.4 F500
M03 S192
G90 G1 X32.5 Y33.4 F60
M05
G90 G1 X32.4 Y33.5 F500
M03 S192
G90 G1 X77.4 Y33.5 F60
M05
G90 G1 X77.5 Y33.6 F500
M03 S192
G90 G1 X32.4 Y33.6 F60
M05
G90 G1 X32.3 Y33.7 F500
M03 S192
G90 G1 X77.5 Y33.7 F60
M05
G90 G1 X77.6 Y33.8 F500
M03 S192
G90 G1 X32.2 Y33.8 F60
M05
G90 G1 X32.2 Y33.9 F500
M03 S192
G90 G1 X77.7 Y33.9 F60
M05
G90 G1 X77.7 Y34 F500
M03 S192
G90 G1 X32.1 Y34 F60
M05
G90 G1 X32 Y34.1 F500
M03 S192
G90 G1 X77.8 Y34.1 F60
M05
G90 G1 X77.9 Y34.2 F500
M03 S192
G90 G1 X32 Y34.2 F60
M05
G90 G1 X31.9 Y34.3 F500
M03 S192
G90 G1 X77.9 Y34.3 F60
M05
G90 G1 X78 Y34.4 F500
M03 S192
G90 G1 X31.8 Y34.4 F60
M05
G90 G1 X31.8 Y34.5 F500
M03 S192
G90 G1 X78.1 Y34.5 F60
M05
G90 G1 X78.1 Y34.6 F500
M03 S192
G90 G1 X31.7 Y34.6 F60
M05
G90 G1 X31.6 Y34.7 F500
M03 S192
G90 G1 X78.2 Y34.7 F60
M05
G90 G1 X78.2 Y34.8 F500
M03 S192
G90 G1 X31.6 Y34.8 F60
M05
G90 G1 X31.5 Y34.9 F500
M03 S192
G90 G1 X78.3 Y34.9 F60
M05
G90 G1 X78.4 Y35 F500
M03 S192
G90 G1 X31.5 Y35 F60
M05
G90 G1 X31.4 Y35.1 F500
M03 S192
G90 G1 X78.5 Y35.1 F60
M05
G90 G1 X78.5 Y35.2 F500
M03 S192
G90 G1 X31.3 Y35.2 F60
M05
G90 G1 X31.3 Y35.3 F500
M03 S192
G90 G1 X78.5 Y35.3 F60
M05
G90 G1 X78.6 Y35.4 F500
M03 S192
G90 G1 X31.2 Y35.4 F60
M05
G90 G1 X31.2 Y35.5 F500
M03 S192
G90 G1 X78.7 Y35.5 F60
M05
G90 G1 X78.7 Y35.6 F500
M03 S192
G90 G1 X31.1 Y35.6 F60
M05
G90 G1 X31 Y35.7 F500
M03 S192
G90 G1 X78.8 Y35.7 F60
M05
G90 G1 X78.8 Y35.8 F500
M03 S192
G90 G1 X31 Y35.8 F60
M05
G90 G1 X31 Y35.9 F500
M03 S192
G90 G1 X78.9 Y35.9 F60
M05
G90 G1 X78.9 Y36 F500
M03 S192
G90 G1 X30.9 Y36 F60
M05
G90 G1 X30.8 Y36.1 F500
M03 S192
G90 G1 X79 Y36.1 F60
M05
G90 G1 X79.1 Y36.2 F500
M03 S192
G90 G1 X30.8 Y36.2 F60
M05
G90 G1 X30.8 Y36.3 F500
M03 S192
G90 G1 X79.1 Y36.3 F60
M05
G90 G1 X79.1 Y36.4 F500
M03 S192
G90 G1 X30.7 Y36.4 F60
M05
G90 G1 X30.6 Y36.5 F500
M03 S192
G90 G1 X79.2 Y36.5 F60
M05
G90 G1 X79.3 Y36.6 F500
M03 S192
G90 G1 X30.6 Y36.6 F60
M05
G90 G1 X30.5 Y36.7 F500
M03 S192
G90 G1 X79.3 Y36.7 F60
M05
G90 G1 X79.3 Y36.8 F500
M03 S192
G90 G1 X30.4 Y36.8 F60
M05
G90 G1 X30.4 Y36.9 F500
M03 S192
G90 G1 X79.4 Y36.9 F60
M05
G90 G1 X79.5 Y37 F500
M03 S192
G90 G1 X30.4 Y37 F60
M05
G90 G1 X30.3 Y37.1 F500
M03 S192
G90 G1 X79.5 Y37.1 F60
M05
G90 G1 X79.5 Y37.2 F500
M03 S192
G90 G1 X30.3 Y37.2 F60
M05
G90 G1 X30.2 Y37.3 F500
M03 S192
G90 G1 X79.6 Y37.3 F60
M05
G90 G1 X79.7 Y37.4 F500
M03 S192
G90 G1 X30.2 Y37.4 F60
M05
G90 G1 X30.2 Y37.5 F500
M03 S192
G90 G1 X79.7 Y37.5 F60
M05
G90 G1 X79.7 Y37.6 F500
M03 S192
G90 G1 X30.1 Y37.6 F60
M05
G90 G1 X30 Y37.7 F500
M03 S192
G90 G1 X79.8 Y37.7 F60
M05
G90 G1 X79.9 Y37.8 F500
M03 S192
G90 G1 X30 Y37.8 F60
M05
G90 G1 X30 Y37.9 F500
M03 S192
G90 G1 X79.9 Y37.9 F60
M05
G90 G1 X79.9 Y38 F500
M03 S192
G90 G1 X29.9 Y38 F60
M05
G90 G1 X29.8 Y38.1 F500
M03 S192
G90 G1 X79.9 Y38.1 F60
M05
G90 G1 X80 Y38.2 F500
M03 S192
G90 G1 X29.8 Y38.2 F60
M05
G90 G1 X29.8 Y38.3 F500
M03 S192
G90 G1 X80.1 Y38.3 F60
M05
G90 G1 X80.1 Y38.4 F500
M03 S192
G90 G1 X29.8 Y38.4 F60
M05
G90 G1 X29.7 Y38.5 F500
M03 S192
G90 G1 X80.1 Y38.5 F60
M05
G90 G1 X80.1 Y38.6 F500
M03 S192
G90 G1 X29.7 Y38.6 F60
M05
G90 G1 X29.6 Y38.7 F500
M03 S192
G90 G1 X80.2 Y38.7 F60
M05
G90 G1 X80.3 Y38.8 F500
M03 S192
G90 G1 X29.6 Y38.8 F60
M05
G90 G1 X29.6 Y38.9 F500
M03 S192
G90 G1 X80.3 Y38.9 F60
M05
G90 G1 X80.3 Y39 F500
M03 S192
G90 G1 X29.5 Y39 F60
M05
G90 G1 X29.5 Y39.1 F500
M03 S192
G90 G1 X80.3 Y39.1 F60
M05
G90 G1 X80.4 Y39.2 F500
M03 S192
G90 G1 X29.4 Y39.2 F60
M05
G90 G1 X29.4 Y39.3 F500
M03 S192
G90 G1 X80.5 Y39.3 F60
M05
G90 G1 X80.5 Y39.4 F500
M03 S192
G90 G1 X29.4 Y39.4 F60
M05
G90 G1 X29.4 Y39.5 F500
M03 S192
G90 G1 X80.5 Y39.5 F60
M05
G90 G1 X80.5 Y39.6 F500
M03 S192
G90 G1 X29.3 Y39.6 F60
M05
G90 G1 X29.3 Y39.7 F500
M03 S192
G90 G1 X80.5 Y39.7 F60
M05
G90 G1 X80.6 Y39.8 F500
M03 S192
G90 G1 X29.2 Y39.8 F60
M05
G90 G1 X29.2 Y39.9 F500
M03 S192
G90 G1 X80.7 Y39.9 F60
M05
G90 G1 X80.7 Y40 F500
M03 S192
G90 G1 X29.2 Y40 F60
M05
G90 G1 X29.2 Y40.1 F500
M03 S192
G90 G1 X80.7 Y40.1 F60
M05
G90 G1 X80.7 Y40.2 F500
M03 S192
G90 G1 X29.1 Y40.2 F60
M05
G90 G1 X29.1 Y40.3 F500
M03 S192
G90 G1 X80.7 Y40.3 F60
M05
G90 G1 X80.8 Y40.4 F500
M03 S192
G90 G1 X29 Y40.4 F60
M05
G90 G1 X29 Y40.5 F500
M03 S192
G90 G1 X80.8 Y40.5 F60
M05
G90 G1 X80.9 Y40.6 F500
M03 S192
G90 G1 X29 Y40.6 F60
M05
G90 G1 X29 Y40.7 F500
M03 S192
G90 G1 X80.9 Y40.7 F60
M05
G90 G1 X80.9 Y40.8 F500
M03 S192
G90 G1 X29 Y40.8 F60
M05
G90 G1 X28.9 Y40.9 F500
M03 S192
G90 G1 X80.9 Y40.9 F60
M05
G90 G1 X80.9 Y41 F500
M03 S192
G90 G1 X28.8 Y41 F60
M05
G90 G1 X28.8 Y41.1 F500
M03 S192
G90 G1 X81 Y41.1 F60
M05
G90 G1 X81 Y41.2 F500
M03 S192
G90 G1 X28.8 Y41.2 F60
M05
G90 G1 X28.8 Y41.3 F500
M03 S192
G90 G1 X81.1 Y41.3 F60
M05
G90 G1 X81.1 Y41.4 F500
M03 S192
G90 G1 X28.8 Y41.4 F60
M05
G90 G1 X28.8 Y41.5 F500
M03 S192
G90 G1 X81.1 Y41.5 F60
M05
G90 G1 X81.1 Y41.6 F500
M03 S192
G90 G1 X28.7 Y41.6 F60
M05
G90 G1 X28.7 Y41.7 F500
M03 S192
G90 G1 X81.1 Y41.7 F60
M05
G90 G1 X81.1 Y41.8 F500
M03 S192
G90 G1 X28.6 Y41.8 F60
M05
G90 G1 X28.6 Y41.9 F500
M03 S192
G90 G1 X81.2 Y41.9 F60
M05
G90 G1 X81.2 Y42 F500
M03 S192
G90 G1 X28.6 Y42 F60
M05
G90 G1 X28.6 Y42.1 F500
M03 S192
G90 G1 X81.3 Y42.1 F60
M05
G90 G1 X81.3 Y42.2 F500
M03 S192
G90 G1 X28.6 Y42.2 F60
M05
G90 G1 X28.6 Y42.3 F500
M03 S192
G90 G1 X81.3 Y42.3 F60
M05
G90 G1 X81.3 Y42.4 F500
M03 S192
G90 G1 X28.6 Y42.4 F60
M05
G90 G1 X28.5 Y42.5 F500
M03 S192
G90 G1 X81.3 Y42.5 F60
M05
G90 G1 X81.3 Y42.6 F500
M03 S192
G90 G1 X28.5 Y42.6 F60
M05
G90 G1 X28.4 Y42.7 F500
M03 S192
G90 G1 X81.3 Y42.7 F60
M05
G90 G1 X81.4 Y42.8 F500
M03 S192
G90 G1 X28.4 Y42.8 F60
M05
G90 G1 X28.4 Y42.9 F500
M03 S192
G90 G1 X81.4 Y42.9 F60
M05
G90 G1 X81.4 Y43 F500
M03 S192
G90 G1 X28.4 Y43 F60
M05
G90 G1 X28.4 Y43.1 F500
M03 S192
G90 G1 X81.5 Y43.1 F60
M05
G90 G1 X81.5 Y43.2 F500
M03 S192
G90 G1 X28.4 Y43.2 F60
M05
G90 G1 X28.4 Y43.3 F500
M03 S192
G90 G1 X81.5 Y43.3 F60
M05
G90 G1 X81.5 Y43.4 F500
M03 S192
G90 G1 X28.4 Y43.4 F60
M05
G90 G1 X28.4 Y43.5 F500
M03 S192
G90 G1 X81.5 Y43.5 F60
M05
G90 G1 X81.5 Y43.6 F500
M03 S192
G90 G1 X28.3 Y43.6 F60
M05
G90 G1 X28.3 Y43.7 F500
M03 S192
G90 G1 X81.5 Y43.7 F60
M05
G90 G1 X81.5 Y43.8 F500
M03 S192
G90 G1 X28.3 Y43.8 F60
M05
G90 G1 X28.3 Y43.9 F500
M03 S192
G90 G1 X81.5 Y43.9 F60
M05
G90 G1 X81.5 Y44 F500
M03 S192
G90 G1 X28.2 Y44 F60
M05
G90 G1 X28.2 Y44.1 F500
M03 S192
G90 G1 X81.6 Y44.1 F60
M05
G90 G1 X81.6 Y44.2 F500
M03 S192
G90 G1 X28.2 Y44.2 F60
M05
G90 G1 X28.2 Y44.3 F500
M03 S192
G90 G1 X81.6 Y44.3 F60
M05
G90 G1 X81.6 Y44.4 F500
M03 S192
G90 G1 X28.2 Y44.4 F60
M05
G90 G1 X28.2 Y44.5 F500
M03 S192
G90 G1 X81.7 Y44.5 F60
M05
G90 G1 X81.7 Y44.6 F500
M03 S192
G90 G1 X28.2 Y44.6 F60
M05
G90 G1 X28.2 Y44.7 F500
M03 S192
G90 G1 X81.7 Y44.7 F60
M05
G90 G1 X81.7 Y44.8 F500
M03 S192
G90 G1 X28.2 Y44.8 F60
M05
G90 G1 X28.2 Y44.9 F500
M03 S192
G90 G1 X81.7 Y44.9 F60
M05
G90 G1 X81.7 Y45 F500
M03 S192
G90 G1 X28.2 Y45 F60
M05
G90 G1 X28.2 Y45.1 F500
M03 S192
G90 G1 X81.7 Y45.1 F60
M05
G90 G1 X81.7 Y45.2 F500
M03 S192
G90 G1 X28.2 Y45.2 F60
M05
G90 G1 X28.2 Y45.3 F500
M03 S192
G90 G1 X81.7 Y45.3 F60
M05
G90 G1 X81.7 Y45.4 F500
M03 S192
G90 G1 X28.1 Y45.4 F60
M05
G90 G1 X28.1 Y45.5 F500
M03 S192
G90 G1 X81.7 Y45.5 F60
M05
G90 G1 X81.7 Y45.6 F500
M03 S192
G90 G1 X28.1 Y45.6 F60
M05
G90 G1 X28.1 Y45.7 F500
M03 S192
G90 G1 X81.7 Y45.7 F60
M05
G90 G1 X81.7 Y45.8 F500
M03 S192
G90 G1 X28.1 Y45.8 F60
M05
G90 G1 X28.1 Y45.9 F500
M03 S192
G90 G1 X81.7 Y45.9 F60
M05
G90 G1 X81.7 Y46 F500
M03 S192
G90 G1 X28.1 Y46 F60
M05
G90 G1 X28.1 Y46.1 F500
M03 S192
G90 G1 X81.7 Y46.1 F60
M05
G90 G1 X81.7 Y46.2 F500
M03 S192
G90 G1 X28.1 Y46.2 F60
M05
G90 G1 X28.1 Y46.3 F500
M03 S192
G90 G1 X81.7 Y46.3 F60
M05
G90 G1 X81.7 Y46.4 F500
M03 S192
G90 G1 X28 Y46.4 F60
M05
G90 G1 X28 Y46.5 F500
M03 S192
G90 G1 X81.7 Y46.5 F60
M05
G90 G1 X81.7 Y46.6 F500
M03 S192
G90 G1 X28 Y46.6 F60
M05
G90 G1 X28 Y46.7 F500
M03 S192
G90 G1 X81.7 Y46.7 F60
M05
G90 G1 X81.7 Y46.8 F500
M03 S192
G90 G1 X28 Y46.8 F60
M05
G90 G1 X28 Y46.9 F500
M03 S192
G90 G1 X81.7 Y46.9 F60
M05
G90 G1 X81.7 Y47 F500
M03 S192
G90 G1 X28 Y47 F60
M05
G90 G1 X28 Y47.1 F500
M03 S192
G90 G1 X81.7 Y47.1 F60
M05
G90 G1 X81.7 Y47.2 F500
M03 S192
G90 G1 X28 Y47.2 F60
M05
G90 G1 X28.1 Y47.3 F500
M03 S192
G90 G1 X81.7 Y47.3 F60
M05
G90 G1 X81.7 Y47.4 F500
M03 S192
G90 G1 X28.1 Y47.4 F60
M05
G90 G1 X28.1 Y47.5 F500
M03 S192
G90 G1 X81.7 Y47.5 F60
M05
G90 G1 X81.7 Y47.6 F500
M03 S192
G90 G1 X28.1 Y47.6 F60
M05
G90 G1 X28 Y47.7 F500
M03 S192
G90 G1 X81.7 Y47.7 F60
M05
G90 G1 X81.7 Y47.8 F500
M03 S192
G90 G1 X28 Y47.8 F60
M05
G90 G1 X28 Y47.9 F500
M03 S192
G90 G1 X81.7 Y47.9 F60
M05
G90 G1 X81.7 Y48 F500
M03 S192
G90 G1 X28 Y48 F60
M05
G90 G1 X28 Y48.1 F500
M03 S192
G90 G1 X81.7 Y48.1 F60
M05
G90 G1 X81.7 Y48.2 F500
M03 S192
G90 G1 X28 Y48.2 F60
M05
G90 G1 X28 Y48.3 F500
M03 S192
G90 G1 X81.7 Y48.3 F60
M05
G90 G1 X81.7 Y48.4 F500
M03 S192
G90 G1 X28 Y48.4 F60
M05
G90 G1 X28 Y48.5 F500
M03 S192
G90 G1 X81.7 Y48.5 F60
M05
G90 G1 X81.7 Y48.6 F500
M03 S192
G90 G1 X28 Y48.6 F60
M05
G90 G1 X28 Y48.7 F500
M03 S192
G90 G1 X81.7 Y48.7 F60
M05
G90 G1 X81.7 Y48.8 F500
M03 S192
G90 G1 X28 Y48.8 F60
M05
G90 G1 X28 Y48.9 F500
M03 S192
G90 G1 X81.7 Y48.9 F60
M05
G90 G1 X81.7 Y49 F500
M03 S192
G90 G1 X28 Y49 F60
M05
G90 G1 X28 Y49.1 F500
M03 S192
G90 G1 X81.7 Y49.1 F60
M05
G90 G1 X81.7 Y49.2 F500
M03 S192
G90 G1 X28 Y49.2 F60
M05
G90 G1 X28 Y49.3 F500
M03 S192
G90 G1 X81.7 Y49.3 F60
M05
G90 G1 X81.7 Y49.4 F500
M03 S192
G90 G1 X28 Y49.4 F60
M05
G90 G1 X28 Y49.5 F500
M03 S192
G90 G1 X81.7 Y49.5 F60
M05
G90 G1 X81.7 Y49.6 F500
M03 S192
G90 G1 X28 Y49.6 F60
M05
G90 G1 X28 Y49.7 F500
M03 S192
G90 G1 X81.7 Y49.7 F60
M05
G90 G1 X81.7 Y49.8 F500
M03 S192
G90 G1 X28 Y49.8 F60
M05
G90 G1 X28 Y49.9 F500
M03 S192
G90 G1 X81.7 Y49.9 F60
M05
G90 G1 X81.7 Y50 F500
M03 S192
G90 G1 X28 Y50 F60
M05
G90 G1 X28 Y50.1 F500
M03 S192
G90 G1 X81.7 Y50.1 F60
M05
G90 G1 X81.7 Y50.2 F500
M03 S192
G90 G1 X28 Y50.2 F60
M05
G90 G1 X28 Y50.3 F500
M03 S192
G90 G1 X81.7 Y50.3 F60
M05
G90 G1 X81.7 Y50.4 F500
M03 S192
G90 G1 X28 Y50.4 F60
M05
G90 G1 X28 Y50.5 F500
M03 S192
G90 G1 X81.7 Y50.5 F60
M05
G90 G1 X81.7 Y50.6 F500
M03 S192
G90 G1 X28 Y50.6 F60
M05
G90 G1 X28 Y50.7 F500
M03 S192
G90 G1 X81.7 Y50.7 F60
M05
G90 G1 X81.7 Y50.8 F500
M03 S192
G90 G1 X28 Y50.8 F60
M05
G90 G1 X28 Y50.9 F500
M03 S192
G90 G1 X81.7 Y50.9 F60
M05
G90 G1 X81.7 Y51 F500
M03 S192
G90 G1 X28 Y51 F60
M05
G90 G1 X28 Y51.1 F500
M03 S192
G90 G1 X81.7 Y51.1 F60
M05
G90 G1 X81.7 Y51.2 F500
M03 S192
G90 G1 X28 Y51.2 F60
M05
G90 G1 X28 Y51.3 F500
M03 S192
G90 G1 X81.7 Y51.3 F60
M05
G90 G1 X81.7 Y51.4 F500
M03 S192
G90 G1 X28 Y51.4 F60
M05
G90 G1 X28 Y51.5 F500
M03 S192
G90 G1 X81.7 Y51.5 F60
M05
G90 G1 X81.7 Y51.6 F500
M03 S192
G90 G1 X28 Y51.6 F60
M05
G90 G1 X28 Y51.7 F500
M03 S192
G90 G1 X81.7 Y51.7 F60
M05
G90 G1 X81.7 Y51.8 F500
M03 S192
G90 G1 X28 Y51.8 F60
M05
G90 G1 X28 Y51.9 F500
M03 S192
G90 G1 X81.7 Y51.9 F60
M05
G90 G1 X81.7 Y52 F500
M03 S192
G90 G1 X28 Y52 F60
M05
G90 G1 X28 Y52.1 F500
M03 S192
G90 G1 X81.7 Y52.1 F60
M05
G90 G1 X81.7 Y52.2 F500
M03 S192
G90 G1 X28 Y52.2 F60
M05
G90 G1 X28 Y52.3 F500
M03 S192
G90 G1 X81.7 Y52.3 F60
M05
G90 G1 X81.7 Y52.4 F500
M03 S192
G90 G1 X28 Y52.4 F60
M05
G90 G1 X28 Y52.5 F500
M03 S192
G90 G1 X81.7 Y52.5 F60
M05
G90 G1 X81.7 Y52.6 F500
M03 S192
G90 G1 X28 Y52.6 F60
M05
G90 G1 X28 Y52.7 F500
M03 S192
G90 G1 X81.7 Y52.7 F60
M05
G90 G1 X81.7 Y52.8 F500
M03 S192
G90 G1 X28 Y52.8 F60
M05
G90 G1 X28 Y52.9 F500
M03 S192
G90 G1 X81.7 Y52.9 F60
M05
G90 G1 X81.7 Y53 F500
M03 S192
G90 G1 X28 Y53 F60
M05
G90 G1 X28 Y53.1 F500
M03 S192
G90 G1 X81.7 Y53.1 F60
M05
G90 G1 X81.7 Y53.2 F500
M03 S192
G90 G1 X28 Y53.2 F60
M05
G90 G1 X28 Y53.3 F500
M03 S192
G90 G1 X81.7 Y53.3 F60
M05
G90 G1 X81.7 Y53.4 F500
M03 S192
G90 G1 X28 Y53.4 F60
M05
G90 G1 X28 Y53.5 F500
M03 S192
G90 G1 X81.7 Y53.5 F60
M05
G90 G1 X81.7 Y53.6 F500
M03 S192
G90 G1 X28 Y53.6 F60
M05
G90 G1 X28 Y53.7 F500
M03 S192
G90 G1 X81.7 Y53.7 F60
M05
G90 G1 X81.7 Y53.8 F500
M03 S192
G90 G1 X28 Y53.8 F60
M05
G90 G1 X28 Y53.9 F500
M03 S192
G90 G1 X81.7 Y53.9 F60
M05
G90 G1 X81.7 Y54 F500
M03 S192
G90 G1 X28 Y54 F60
M05
G90 G1 X28 Y54.1 F500
M03 S192
G90 G1 X81.7 Y54.1 F60
M05
G90 G1 X81.7 Y54.2 F500
M03 S192
G90 G1 X28 Y54.2 F60
M05
G90 G1 X28 Y54.3 F500
M03 S192
G90 G1 X81.7 Y54.3 F60
M05
G90 G1 X81.7 Y54.4 F500
M03 S192
G90 G1 X28 Y54.4 F60
M05
G90 G1 X28 Y54.5 F500
M03 S192
G90 G1 X81.7 Y54.5 F60
M05
G90 G1 X81.7 Y54.6 F500
M03 S192
G90 G1 X28 Y54.6 F60
M05
G90 G1 X28 Y54.7 F500
M03 S192
G90 G1 X81.7 Y54.7 F60
M05
G90 G1 X81.7 Y54.8 F500
M03 S192
G90 G1 X28 Y54.8 F60
M05
G90 G1 X28 Y54.9 F500
M03 S192
G90 G1 X81.7 Y54.9 F60
M05
G90 G1 X81.7 Y55 F500
M03 S192
G90 G1 X28 Y55 F60
M05
G90 G1 X28 Y55.1 F500
M03 S192
G90 G1 X81.7 Y55.1 F60
M05
G90 G1 X81.7 Y55.2 F500
M03 S192
G90 G1 X28 Y55.2 F60
M05
G90 G1 X28 Y55.3 F500
M03 S192
G90 G1 X81.7 Y55.3 F60
M05
G90 G1 X81.7 Y55.4 F500
M03 S192
G90 G1 X51.1 Y55.4 F60
M05
G90 G1 X50.1 Y55.4 F500
M03 S192
G90 G1 X28 Y55.4 F60
M05
G90 G1 X28 Y55.5 F500
M03 S192
G90 G1 X50 Y55.5 F60
M05
G90 G1 X50 Y55.6 F500
M03 S192
G90 G1 X28 Y55.6 F60
M05
G90 G1 X28 Y55.7 F500
M03 S192
G90 G1 X50 Y55.7 F60
M05
G90 G1 X50 Y55.8 F500
M03 S192
G90 G1 X28 Y55.8 F60
M05
G90 G1 X28 Y55.9 F500
M03 S192
G90 G1 X50 Y55.9 F60
M05
G90 G1 X50 Y56 F500
M03 S192
G90 G1 X28 Y56 F60
M05
G90 G1 X28 Y56.1 F500
M03 S192
G90 G1 X50 Y56.1 F60
M05
G90 G1 X50 Y56.2 F500
M03 S192
G90 G1 X28 Y56.2 F60
M05
G90 G1 X28 Y56.3 F500
M03 S192
G90 G1 X50 Y56.3 F60
M05
G90 G1 X50 Y56.4 F500
M03 S192
G90 G1 X28 Y56.4 F60
M05
G90 G1 X28 Y56.5 F500
M03 S192
G90 G1 X50 Y56.5 F60
M05
G90 G1 X50 Y56.6 F500
M03 S192
G90 G1 X28 Y56.6 F60
M05
G90 G1 X28 Y56.7 F500
M03 S192
G90 G1 X50 Y56.7 F60
M05
G90 G1 X50 Y56.8 F500
M03 S192
G90 G1 X28 Y56.8 F60
M05
G90 G1 X28 Y56.9 F500
M03 S192
G90 G1 X50 Y56.9 F60
M05
G90 G1 X50 Y57 F500
M03 S192
G90 G1 X28 Y57 F60
M05
G90 G1 X28 Y57.1 F500
M03 S192
G90 G1 X50 Y57.1 F60
M05
G90 G1 X50 Y57.2 F500
M03 S192
G90 G1 X28 Y57.2 F60
M05
G90 G1 X28 Y57.3 F500
M03 S192
G90 G1 X50 Y57.3 F60
M05
G90 G1 X50 Y57.4 F500
M03 S192
G90 G1 X28 Y57.4 F60
M05
G90 G1 X28 Y57.5 F500
M03 S192
G90 G1 X50 Y57.5 F60
M05
G90 G1 X50 Y57.6 F500
M03 S192
G90 G1 X28 Y57.6 F60
M05
G90 G1 X28 Y57.7 F500
M03 S192
G90 G1 X50 Y57.7 F60
M05
G90 G1 X50 Y57.8 F500
M03 S192
G90 G1 X28 Y57.8 F60
M05
G90 G1 X28 Y57.9 F500
M03 S192
G90 G1 X50 Y57.9 F60
M05
G90 G1 X50 Y58 F500
M03 S192
G90 G1 X28 Y58 F60
M05
G90 G1 X28 Y58.1 F500
M03 S192
G90 G1 X50 Y58.1 F60
M05
G90 G1 X50 Y58.2 F500
M03 S192
G90 G1 X28 Y58.2 F60
M05
G90 G1 X28 Y58.3 F500
M03 S192
G90 G1 X50 Y58.3 F60
M05
G90 G1 X50 Y58.4 F500
M03 S192
G90 G1 X28 Y58.4 F60
M05
G90 G1 X28 Y58.5 F500
M03 S192
G90 G1 X50 Y58.5 F60
M05
G90 G1 X50 Y58.6 F500
M03 S192
G90 G1 X28 Y58.6 F60
M05
G90 G1 X28 Y58.7 F500
M03 S192
G90 G1 X50 Y58.7 F60
M05
G90 G1 X50 Y58.8 F500
M03 S192
G90 G1 X28 Y58.8 F60
M05
G90 G1 X28 Y58.9 F500
M03 S192
G90 G1 X50 Y58.9 F60
M05
G90 G1 X50 Y59 F500
M03 S192
G90 G1 X28 Y59 F60
M05
G90 G1 X28 Y59.1 F500
M03 S192
G90 G1 X50 Y59.1 F60
M05
G90 G1 X50 Y59.2 F500
M03 S192
G90 G1 X28 Y59.2 F60
M05
G90 G1 X28 Y59.3 F500
M03 S192
G90 G1 X50 Y59.3 F60
M05
G90 G1 X50 Y59.4 F500
M03 S192
G90 G1 X28 Y59.4 F60
M05
G90 G1 X28 Y59.5 F500
M03 S192
G90 G1 X50 Y59.5 F60
M05
G90 G1 X50 Y59.6 F500
M03 S192
G90 G1 X28 Y59.6 F60
M05
G90 G1 X28 Y59.7 F500
M03 S192
G90 G1 X50 Y59.7 F60
M05
G90 G1 X50 Y59.8 F500
M03 S192
G90 G1 X28 Y59.8 F60
M05
G90 G1 X28 Y59.9 F500
M03 S192
G90 G1 X50 Y59.9 F60
M05
G90 G1 X50 Y60 F500
M03 S192
G90 G1 X28 Y60 F60
M05
G90 G1 X28 Y60.1 F500
M03 S192
G90 G1 X50 Y60.1 F60
M05
G90 G1 X50 Y60.2 F500
M03 S192
G90 G1 X28 Y60.2 F60
M05
G90 G1 X28 Y60.3 F500
M03 S192
G90 G1 X50 Y60.3 F60
M05
G90 G1 X50 Y60.4 F500
M03 S192
G90 G1 X28 Y60.4 F60
M05
G90 G1 X28 Y60.5 F500
M03 S192
G90 G1 X50 Y60.5 F60
M05
G90 G1 X50 Y60.6 F500
M03 S192
G90 G1 X28 Y60.6 F60
M05
G90 G1 X28 Y60.7 F500
M03 S192
G90 G1 X50 Y60.7 F60
M05
G90 G1 X50 Y60.8 F500
M03 S192
G90 G1 X28 Y60.8 F60
M05
G90 G1 X28 Y60.9 F500
M03 S192
G90 G1 X50 Y60.9 F60
M05
G90 G1 X50 Y61 F500
M03 S192
G90 G1 X28 Y61 F60
M05
G90 G1 X28 Y61.1 F500
M03 S192
G90 G1 X50 Y61.1 F60
M05
G90 G1 X50 Y61.2 F500
M03 S192
G90 G1 X28 Y61.2 F60
M05
G90 G1 X28 Y61.3 F500
M03 S192
G90 G1 X50 Y61.3 F60
M05
G90 G1 X50 Y61.4 F500
M03 S192
G90 G1 X28 Y61.4 F60
M05
G90 G1 X28 Y61.5 F500
M03 S192
G90 G1 X50 Y61.5 F60
M05
G90 G1 X50 Y61.6 F500
M03 S192
G90 G1 X28 Y61.6 F60
M05
G90 G1 X28 Y61.7 F500
M03 S192
G90 G1 X50 Y61.7 F60
M05
G90 G1 X50 Y61.8 F500
M03 S192
G90 G1 X28 Y61.8 F60
M05
G90 G1 X28 Y61.9 F500
M03 S192
G90 G1 X50 Y61.9 F60
M05
G90 G1 X50 Y62 F500
M03 S192
G90 G1 X28 Y62 F60
M05
G90 G1 X28 Y62.1 F500
M03 S192
G90 G1 X50 Y62.1 F60
M05
G90 G1 X50 Y62.2 F500
M03 S192
G90 G1 X28 Y62.2 F60
M05
G90 G1 X28 Y62.3 F500
M03 S192
G90 G1 X50 Y62.3 F60
M05
G90 G1 X50 Y62.4 F500
M03 S192
G90 G1 X28 Y62.4 F60
M05
G90 G1 X28 Y62.5 F500
M03 S192
G90 G1 X50 Y62.5 F60
M05
G90 G1 X50 Y62.6 F500
M03 S192
G90 G1 X28 Y62.6 F60
M05
G90 G1 X28 Y62.7 F500
M03 S192
G90 G1 X50 Y62.7 F60
M05
G90 G1 X50 Y62.8 F500
M03 S192
G90 G1 X28 Y62.8 F60
M05
G90 G1 X28 Y62.9 F500
M03 S192
G90 G1 X50 Y62.9 F60
M05
G90 G1 X50 Y63 F500
M03 S192
G90 G1 X28 Y63 F60
M05
G90 G1 X28 Y63.1 F500
M03 S192
G90 G1 X50 Y63.1 F60
M05
G90 G1 X50 Y63.2 F500
M03 S192
G90 G1 X28 Y63.2 F60
M05
G90 G1 X28 Y63.3 F500
M03 S192
G90 G1 X50 Y63.3 F60
M05
G90 G1 X50 Y63.4 F500
M03 S192
G90 G1 X28 Y63.4 F60
M05
G90 G1 X28 Y63.5 F500
M03 S192
G90 G1 X50 Y63.5 F60
M05
G90 G1 X50 Y63.6 F500
M03 S192
G90 G1 X28 Y63.6 F60
M05
G90 G1 X28 Y63.7 F500
M03 S192
G90 G1 X50 Y63.7 F60
M05
G90 G1 X50 Y63.8 F500
M03 S192
G90 G1 X28 Y63.8 F60
M05
G90 G1 X28 Y63.9 F500
M03 S192
G90 G1 X50 Y63.9 F60
M05
G90 G1 X50 Y64 F500
M03 S192
G90 G1 X28 Y64 F60
M05
G90 G1 X28 Y64.1 F500
M03 S192
G90 G1 X50 Y64.1 F60
M05
G90 G1 X50 Y64.2 F500
M03 S192
G90 G1 X28 Y64.2 F60
M05
G90 G1 X28 Y64.3 F500
M03 S192
G90 G1 X50 Y64.3 F60
M05
G90 G1 X50 Y64.4 F500
M03 S192
G90 G1 X28 Y64.4 F60
M05
G90 G1 X28 Y64.5 F500
M03 S192
G90 G1 X50 Y64.5 F60
M05
G90 G1 X50 Y64.6 F500
M03 S192
G90 G1 X28 Y64.6 F60
M05
G90 G1 X28 Y64.7 F500
M03 S192
G90 G1 X50 Y64.7 F60
M05
G90 G1 X50 Y64.8 F500
M03 S192
G90 G1 X28 Y64.8 F60
M05
G90 G1 X28 Y64.9 F500
M03 S192
G90 G1 X50 Y64.9 F60
M05
G90 G1 X50 Y65 F500
M03 S192
G90 G1 X28 Y65 F60
M05
G90 G1 X28 Y65.1 F500
M03 S192
G90 G1 X50 Y65.1 F60
M05
G90 G1 X50 Y65.2 F500
M03 S192
G90 G1 X28 Y65.2 F60
M05
G90 G1 X28 Y65.3 F500
M03 S192
G90 G1 X50 Y65.3 F60
M05
G90 G1 X50 Y65.4 F500
M03 S192
G90 G1 X28 Y65.4 F60
M05
G90 G1 X28 Y65.5 F500
M03 S192
G90 G1 X50 Y65.5 F60
M05
G90 G1 X50 Y65.6 F500
M03 S192
G90 G1 X28 Y65.6 F60
M05
G90 G1 X28 Y65.7 F500
M03 S192
G90 G1 X50 Y65.7 F60
M05
G90 G1 X50 Y65.8 F500
M03 S192
G90 G1 X28 Y65.8 F60
M05
G90 G1 X28 Y65.9 F500
M03 S192
G90 G1 X50 Y65.9 F60
M05
G90 G1 X50 Y66 F500
M03 S192
G90 G1 X28 Y66 F60
M05
G90 G1 X28 Y66.1 F500
M03 S192
G90 G1 X50 Y66.1 F60
M05
G90 G1 X50 Y66.2 F500
M03 S192
G90 G1 X28 Y66.2 F60
M05
G90 G1 X28 Y66.3 F500
M03 S192
G90 G1 X50 Y66.3 F60
M05
G90 G1 X50 Y66.4 F500
M03 S192
G90 G1 X28 Y66.4 F60
M05
G90 G1 X28 Y66.5 F500
M03 S192
G90 G1 X50 Y66.5 F60
M05
G90 G1 X50 Y66.6 F500
M03 S192
G90 G1 X28 Y66.6 F60
M05
G90 G1 X28 Y66.7 F500
M03 S192
G90 G1 X50 Y66.7 F60
M05
G90 G1 X50 Y66.8 F500
M03 S192
G90 G1 X28 Y66.8 F60
M05
G90 G1 X28 Y66.9 F500
M03 S192
G90 G1 X50 Y66.9 F60
M05
G90 G1 X50 Y67 F500
M03 S192
G90 G1 X28 Y67 F60
M05
G90 G1 X28 Y67.1 F500
M03 S192
G90 G1 X50 Y67.1 F60
M05
G90 G1 X50 Y67.2 F500
M03 S192
G90 G1 X28 Y67.2 F60
M05
G90 G1 X28 Y67.3 F500
M03 S192
G90 G1 X50 Y67.3 F60
M05
G90 G1 X50 Y67.4 F500
M03 S192
G90 G1 X28 Y67.4 F60
M05
G90 G1 X28 Y67.5 F500
M03 S192
G90 G1 X50 Y67.5 F60
M05
G90 G1 X50 Y67.6 F500
M03 S192
G90 G1 X28 Y67.6 F60
M05
G90 G1 X28 Y67.7 F500
M03 S192
G90 G1 X50 Y67.7 F60
M05
G90 G1 X50 Y67.8 F500
M03 S192
G90 G1 X28 Y67.8 F60
M05
G90 G1 X28 Y67.9 F500
M03 S192
G90 G1 X50 Y67.9 F60
M05
G90 G1 X50 Y68 F500
M03 S192
G90 G1 X28 Y68 F60
M05
G90 G1 X28 Y68.1 F500
M03 S192
G90 G1 X50 Y68.1 F60
M05
G90 G1 X50 Y68.2 F500
M03 S192
G90 G1 X28 Y68.2 F60
M05
G90 G1 X28 Y68.3 F500
M03 S192
G90 G1 X50 Y68.3 F60
M05
G90 G1 X50 Y68.4 F500
M03 S192
G90 G1 X28 Y68.4 F60
M05
G90 G1 X28 Y68.5 F500
M03 S192
G90 G1 X50 Y68.5 F60
M05
G90 G1 X50 Y68.6 F500
M03 S192
G90 G1 X28 Y68.6 F60
M05
G90 G1 X28 Y68.7 F500
M03 S192
G90 G1 X50 Y68.7 F60
M05
G90 G1 X50 Y68.8 F500
M03 S192
G90 G1 X28 Y68.8 F60
M05
G90 G1 X28 Y68.9 F500
M03 S192
G90 G1 X50 Y68.9 F60
M05
G90 G1 X50 Y69 F500
M03 S192
G90 G1 X28 Y69 F60
M05
G90 G1 X28 Y69.1 F500
M03 S192
G90 G1 X50 Y69.1 F60
M05
G90 G1 X50 Y69.2 F500
M03 S192
G90 G1 X28 Y69.2 F60
M05
G90 G1 X28 Y69.3 F500
M03 S192
G90 G1 X50 Y69.3 F60
M05
G90 G1 X50 Y69.4 F500
M03 S192
G90 G1 X28 Y69.4 F60
M05
G90 G1 X27.9 Y69.5 F500
M03 S192
G90 G1 X50 Y69.5 F60
M05
G90 G1 X50 Y69.6 F500
M03 S192
G90 G1 X27.8 Y69.6 F60
M05
G90 G1 X22.2 Y69.7 F500
M03 S192
G90 G1 X50 Y69.7 F60
M05
G90 G1 X50 Y69.8 F500
M03 S192
G90 G1 X21.7 Y69.8 F60
M05
G90 G1 X21.5 Y69.9 F500
M03 S192
G90 G1 X50 Y69.9 F60
M05
G90 G1 X50 Y70 F500
M03 S192
G90 G1 X21.2 Y70 F60
M05
G90 G1 X21 Y70.1 F500
M03 S192
G90 G1 X50 Y70.1 F60
M05
G90 G1 X50 Y70.2 F500
M03 S192
G90 G1 X20.8 Y70.2 F60
M05
G90 G1 X20.6 Y70.3 F500
M03 S192
G90 G1 X50 Y70.3 F60
M05
G90 G1 X50 Y70.4 F500
M03 S192
G90 G1 X20.5 Y70.4 F60
M05
G90 G1 X20.3 Y70.5 F500
M03 S192
G90 G1 X50 Y70.5 F60
M05
G90 G1 X50 Y70.6 F500
M03 S192
G90 G1 X20.2 Y70.6 F60
M05
G90 G1 X20.1 Y70.7 F500
M03 S192
G90 G1 X50 Y70.7 F60
M05
G90 G1 X50 Y70.8 F500
M03 S192
G90 G1 X19.9 Y70.8 F60
M05
G90 G1 X19.8 Y70.9 F500
M03 S192
G90 G1 X50 Y70.9 F60
M05
G90 G1 X50 Y71 F500
M03 S192
G90 G1 X19.7 Y71 F60
M05
G90 G1 X19.6 Y71.1 F500
M03 S192
G90 G1 X50 Y71.1 F60
M05
G90 G1 X50 Y71.2 F500
M03 S192
G90 G1 X19.6 Y71.2 F60
M05
G90 G1 X19.5 Y71.3 F500
M03 S192
G90 G1 X50 Y71.3 F60
M05
G90 G1 X50 Y71.4 F500
M03 S192
G90 G1 X19.4 Y71.4 F60
M05
G90 G1 X19.3 Y71.5 F500
M03 S192
G90 G1 X50 Y71.5 F60
M05
G90 G1 X50 Y71.6 F500
M03 S192
G90 G1 X19.2 Y71.6 F60
M05
G90 G1 X19.2 Y71.7 F500
M03 S192
G90 G1 X50 Y71.7 F60
M05
G90 G1 X50 Y71.8 F500
M03 S192
G90 G1 X19.1 Y71.8 F60
M05
G90 G1 X19 Y71.9 F500
M03 S192
G90 G1 X50 Y71.9 F60
M05
G90 G1 X50 Y72 F500
M03 S192
G90 G1 X19 Y72 F60
M05
G90 G1 X18.9 Y72.1 F500
M03 S192
G90 G1 X50 Y72.1 F60
M05
G90 G1 X50 Y72.2 F500
M03 S192
G90 G1 X18.8 Y72.2 F60
M05
G90 G1 X18.8 Y72.3 F500
M03 S192
G90 G1 X50 Y72.3 F60
M05
G90 G1 X50 Y72.4 F500
M03 S192
G90 G1 X18.8 Y72.4 F60
M05
G90 G1 X18.8 Y72.5 F500
M03 S192
G90 G1 X50 Y72.5 F60
M05
G90 G1 X50 Y72.6 F500
M03 S192
G90 G1 X18.7 Y72.6 F60
M05
G90 G1 X18.6 Y72.7 F500
M03 S192
G90 G1 X50 Y72.7 F60
M05
G90 G1 X50 Y72.8 F500
M03 S192
G90 G1 X18.6 Y72.8 F60
M05
G90 G1 X18.6 Y72.9 F500
M03 S192
G90 G1 X50 Y72.9 F60
M05
G90 G1 X50 Y73 F500
M03 S192
G90 G1 X40.5 Y73 F60
M05
G90 G1 X40.8 Y73.1 F500
M03 S192
G90 G1 X50 Y73.1 F60
M05
G90 G1 X50 Y73.2 F500
M03 S192
G90 G1 X41.3 Y73.2 F60
M05
G90 G1 X41.4 Y73.3 F500
M03 S192
G90 G1 X50 Y73.3 F60
M05
G90 G1 X50 Y73.4 F500
M03 S192
G90 G1 X41.7 Y73.4 F60
M05
G90 G1 X41.9 Y73.5 F500
M03 S192
G90 G1 X50 Y73.5 F60
M05
G90 G1 X50 Y73.6 F500
M03 S192
G90 G1 X42.1 Y73.6 F60
M05
G90 G1 X42.3 Y73.7 F500
M03 S192
G90 G1 X50 Y73.7 F60
M05
G90 G1 X50 Y73.8 F500
M03 S192
G90 G1 X42.4 Y73.8 F60
M05
G90 G1 X42.6 Y73.9 F500
M03 S192
G90 G1 X50 Y73.9 F60
M05
G90 G1 X50 Y74 F500
M03 S192
G90 G1 X42.7 Y74 F60
M05
G90 G1 X42.8 Y74.1 F500
M03 S192
G90 G1 X50 Y74.1 F60
M05
G90 G1 X50 Y74.2 F500
M03 S192
G90 G1 X43 Y74.2 F60
M05
G90 G1 X43.1 Y74.3 F500
M03 S192
G90 G1 X50 Y74.3 F60
M05
G90 G1 X50 Y74.4 F500
M03 S192
G90 G1 X43.2 Y74.4 F60
M05
G90 G1 X43.3 Y74.5 F500
M03 S192
G90 G1 X50 Y74.5 F60
M05
G90 G1 X50 Y74.6 F500
M03 S192
G90 G1 X43.4 Y74.6 F60
M05
G90 G1 X43.5 Y74.7 F500
M03 S192
G90 G1 X50 Y74.7 F60
M05
G90 G1 X50 Y74.8 F500
M03 S192
G90 G1 X43.6 Y74.8 F60
M05
G90 G1 X43.7 Y74.9 F500
M03 S192
G90 G1 X50 Y74.9 F60
M05
G90 G1 X50 Y75 F500
M03 S192
G90 G1 X43.7 Y75 F60
M05
G90 G1 X43.8 Y75.1 F500
M03 S192
G90 G1 X50 Y75.1 F60
M05
G90 G1 X50 Y75.2 F500
M03 S192
G90 G1 X43.9 Y75.2 F60
M05
G90 G1 X44 Y75.3 F500
M03 S192
G90 G1 X50 Y75.3 F60
M05
G90 G1 X50 Y75.4 F500
M03 S192
G90 G1 X44.1 Y75.4 F60
M05
G90 G1 X44.1 Y75.5 F500
M03 S192
G90 G1 X50 Y75.5 F60
M05
G90 G1 X50 Y75.6 F500
M03 S192
G90 G1 X44.1 Y75.6 F60
M05
G90 G1 X44.2 Y75.7 F500
M03 S192
G90 G1 X50 Y75.7 F60
M05
G90 G1 X50 Y75.8 F500
M03 S192
G90 G1 X44.3 Y75.8 F60
M05
G90 G1 X44.3 Y75.9 F500
M03 S192
G90 G1 X50 Y75.9 F60
M05
G90 G1 X50 Y76 F500
M03 S192
G90 G1 X44.3 Y76 F60
M05
G90 G1 X44.4 Y76.1 F500
M03 S192
G90 G1 X50 Y76.1 F60
M05
G90 G1 X50 Y76.2 F500
M03 S192
G90 G1 X44.5 Y76.2 F60
M05
G90 G1 X44.5 Y76.3 F500
M03 S192
G90 G1 X50 Y76.3 F60
M05
G90 G1 X50 Y76.4 F500
M03 S192
G90 G1 X44.5 Y76.4 F60
M05
G90 G1 X44.5 Y76.5 F500
M03 S192
G90 G1 X50 Y76.5 F60
M05
G90 G1 X50 Y76.6 F500
M03 S192
G90 G1 X44.6 Y76.6 F60
M05
G90 G1 X44.6 Y76.7 F500
M03 S192
G90 G1 X50 Y76.7 F60
M05
G90 G1 X50 Y76.8 F500
M03 S192
G90 G1 X44.7 Y76.8 F60
M05
G90 G1 X44.7 Y76.9 F500
M03 S192
G90 G1 X50 Y76.9 F60
M05
G90 G1 X50 Y77 F500
M03 S192
G90 G1 X44.7 Y77 F60
M05
G90 G1 X44.7 Y77.1 F500
M03 S192
G90 G1 X50 Y77.1 F60
M05
G90 G1 X50 Y77.2 F500
M03 S192
G90 G1 X44.7 Y77.2 F60
M05
G90 G1 X44.7 Y77.3 F500
M03 S192
G90 G1 X50 Y77.3 F60
M05
G90 G1 X50 Y77.4 F500
M03 S192
G90 G1 X44.7 Y77.4 F60
M05
G90 G1 X44.7 Y77.5 F500
M03 S192
G90 G1 X50 Y77.5 F60
M05
G90 G1 X50 Y77.6 F500
M03 S192
G90 G1 X44.8 Y77.6 F60
M05
G90 G1 X44.8 Y77.7 F500
M03 S192
G90 G1 X50 Y77.7 F60
M05
G90 G1 X50 Y77.8 F500
M03 S192
G90 G1 X44.8 Y77.8 F60
M05
G90 G1 X44.8 Y77.9 F500
M03 S192
G90 G1 X50 Y77.9 F60
M05
G90 G1 X50 Y78 F500
M03 S192
G90 G1 X44.8 Y78 F60
M05
G90 G1 X44.8 Y78.1 F500
M03 S192
G90 G1 X50 Y78.1 F60
M05
G90 G1 X50 Y78.2 F500
M03 S192
G90 G1 X44.8 Y78.2 F60
M05
G90 G1 X44.8 Y78.3 F500
M03 S192
G90 G1 X50 Y78.3 F60
M05
G90 G1 X50 Y78.4 F500
M03 S192
G90 G1 X44.8 Y78.4 F60
M05
G90 G1 X44.8 Y78.5 F500
M03 S192
G90 G1 X50 Y78.5 F60
M05
G90 G1 X50 Y78.6 F500
M03 S192
G90 G1 X44.8 Y78.6 F60
M05
G90 G1 X44.8 Y78.7 F500
M03 S192
G90 G1 X50 Y78.7 F60
M05
G90 G1 X49.9 Y78.8 F500
M03 S192
G90 G1 X44.8 Y78.8 F60
M05
G90 G1 X44.8 Y78.9 F500
M03 S192
G90 G1 X49.9 Y78.9 F60
M05
G90 G1 X49.9 Y79 F500
M03 S192
G90 G1 X44.7 Y79 F60
M05
G90 G1 X44.7 Y79.1 F500
M03 S192
G90 G1 X49.9 Y79.1 F60
M05
G90 G1 X49.9 Y79.2 F500
M03 S192
G90 G1 X44.7 Y79.2 F60
M05
G90 G1 X44.7 Y79.3 F500
M03 S192
G90 G1 X49.9 Y79.3 F60
M05
G90 G1 X49.9 Y79.4 F500
M03 S192
G90 G1 X44.7 Y79.4 F60
M05
G90 G1 X44.7 Y79.5 F500
M03 S192
G90 G1 X49.9 Y79.5 F60
M05
G90 G1 X49.9 Y79.6 F500
M03 S192
G90 G1 X44.7 Y79.6 F60
M05
G90 G1 X44.6 Y79.7 F500
M03 S192
G90 G1 X49.9 Y79.7 F60
M05
G90 G1 X49.9 Y79.8 F500
M03 S192
G90 G1 X44.5 Y79.8 F60
M05
G90 G1 X44.5 Y79.9 F500
M03 S192
G90 G1 X49.9 Y79.9 F60
M05
G90 G1 X49.8 Y80 F500
M03 S192
G90 G1 X44.5 Y80 F60
M05
G90 G1 X44.5 Y80.1 F500
M03 S192
G90 G1 X49.8 Y80.1 F60
M05
G90 G1 X49.8 Y80.2 F500
M03 S192
G90 G1 X44.4 Y80.2 F60
M05
G90 G1 X44.3 Y80.3 F500
M03 S192
G90 G1 X49.7 Y80.3 F60
M05
G90 G1 X49.7 Y80.4 F500
M03 S192
G90 G1 X44.3 Y80.4 F60
M05
G90 G1 X44.3 Y80.5 F500
M03 S192
G90 G1 X49.7 Y80.5 F60
M05
G90 G1 X49.7 Y80.6 F500
M03 S192
G90 G1 X44.2 Y80.6 F60
M05
G90 G1 X44.1 Y80.7 F500
M03 S192
G90 G1 X49.7 Y80.7 F60
M05
G90 G1 X49.7 Y80.8 F500
M03 S192
G90 G1 X44.1 Y80.8 F60
M05
G90 G1 X44.1 Y80.9 F500
M03 S192
G90 G1 X49.7 Y80.9 F60
M05
G90 G1 X49.6 Y81 F500
M03 S192
G90 G1 X44 Y81 F60
M05
G90 G1 X43.9 Y81.1 F500
M03 S192
G90 G1 X49.6 Y81.1 F60
M05
G90 G1 X49.5 Y81.2 F500
M03 S192
G90 G1 X43.9 Y81.2 F60
M05
G90 G1 X43.8 Y81.3 F500
M03 S192
G90 G1 X49.5 Y81.3 F60
M05
G90 G1 X49.5 Y81.4 F500
M03 S192
G90 G1 X43.7 Y81.4 F60
M05
G90 G1 X43.6 Y81.5 F500
M03 S192
G90 G1 X49.5 Y81.5 F60
M05
G90 G1 X49.4 Y81.6 F500
M03 S192
G90 G1 X43.5 Y81.6 F60
M05
G90 G1 X43.4 Y81.7 F500
M03 S192
G90 G1 X49.4 Y81.7 F60
M05
G90 G1 X49.3 Y81.8 F500
M03 S192
G90 G1 X43.3 Y81.8 F60
M05
G90 G1 X43.2 Y81.9 F500
M03 S192
G90 G1 X49.3 Y81.9 F60
M05
G90 G1 X49.3 Y82 F500
M03 S192
G90 G1 X43.1 Y82 F60
M05
G90 G1 X43 Y82.1 F500
M03 S192
G90 G1 X49.3 Y82.1 F60
M05
G90 G1 X49.2 Y82.2 F500
M03 S192
G90 G1 X42.9 Y82.2 F60
M05
G90 G1 X42.8 Y82.3 F500
M03 S192
G90 G1 X49.1 Y82.3 F60
M05
G90 G1 X49.1 Y82.4 F500
M03 S192
G90 G1 X42.6 Y82.4 F60
M05
G90 G1 X42.5 Y82.5 F500
M03 S192
G90 G1 X49.1 Y82.5 F60
M05
G90 G1 X49 Y82.6 F500
M03 S192
G90 G1 X42.3 Y82.6 F60
M05
G90 G1 X42.2 Y82.7 F500
M03 S192
G90 G1 X49 Y82.7 F60
M05
G90 G1 X48.9 Y82.8 F500
M03 S192
G90 G1 X42.1 Y82.8 F60
M05
G90 G1 X41.8 Y82.9 F500
M03 S192
G90 G1 X48.9 Y82.9 F60
M05
G90 G1 X48.8 Y83 F500
M03 S192
G90 G1 X41.6 Y83 F60
M05
G90 G1 X41.2 Y83.1 F500
M03 S192
G90 G1 X48.8 Y83.1 F60
M05
G90 G1 X48.7 Y83.2 F500
M03 S192
G90 G1 X41.1 Y83.2 F60
M05
G90 G1 X40.4 Y83.3 F500
M03 S192
G90 G1 X48.7 Y83.3 F60
M05
G90 G1 X48.6 Y83.4 F500
M03 S192
G90 G1 X39.9 Y83.4 F60
M05
G90 G1 X39.2 Y83.4 F500
M03 S192
G90 G1 X29.4 Y83.4 F60
M05
G90 G1 X29.4 Y83.3 F500
M03 S192
G90 G1 X38.7 Y83.3 F60
M05
G90 G1 X38 Y83.2 F500
M03 S192
G90 G1 X29.3 Y83.2 F60
M05
G90 G1 X29.2 Y83.1 F500
M03 S192
G90 G1 X37.9 Y83.1 F60
M05
G90 G1 X37.5 Y83 F500
M03 S192
G90 G1 X29.2 Y83 F60
M05
G90 G1 X29.2 Y82.9 F500
M03 S192
G90 G1 X37.3 Y82.9 F60
M05
G90 G1 X37.1 Y82.8 F500
M03 S192
G90 G1 X29.1 Y82.8 F60
M05
G90 G1 X29 Y82.7 F500
M03 S192
G90 G1 X36.9 Y82.7 F60
M05
G90 G1 X36.8 Y82.6 F500
M03 S192
G90 G1 X29 Y82.6 F60
M05
G90 G1 X29 Y82.5 F500
M03 S192
G90 G1 X36.6 Y82.5 F60
M05
G90 G1 X36.4 Y82.4 F500
M03 S192
G90 G1 X29 Y82.4 F60
M05
G90 G1 X28.9 Y82.3 F500
M03 S192
G90 G1 X36.3 Y82.3 F60
M05
G90 G1 X36.2 Y82.2 F500
M03 S192
G90 G1 X28.8 Y82.2 F60
M05
G90 G1 X28.8 Y82.1 F500
M03 S192
G90 G1 X36.1 Y82.1 F60
M05
G90 G1 X36 Y82 F500
M03 S192
G90 G1 X28.8 Y82 F60
M05
G90 G1 X28.7 Y81.9 F500
M03 S192
G90 G1 X35.9 Y81.9 F60
M05
G90 G1 X35.8 Y81.8 F500
M03 S192
G90 G1 X28.7 Y81.8 F60
M05
G90 G1 X28.6 Y81.7 F500
M03 S192
G90 G1 X35.7 Y81.7 F60
M05
G90 G1 X35.6 Y81.6 F500
M03 S192
G90 G1 X28.6 Y81.6 F60
M05
G90 G1 X28.6 Y81.5 F500
M03 S192
G90 G1 X35.5 Y81.5 F60
M05
G90 G1 X35.4 Y81.4 F500
M03 S192
G90 G1 X28.6 Y81.4 F60
M05
G90 G1 X28.5 Y81.3 F500
M03 S192
G90 G1 X35.3 Y81.3 F60
M05
G90 G1 X35.2 Y81.2 F500
M03 S192
G90 G1 X28.5 Y81.2 F60
M05
G90 G1 X28.4 Y81.1 F500
M03 S192
G90 G1 X35.2 Y81.1 F60
M05
G90 G1 X35.2 Y81 F500
M03 S192
G90 G1 X28.4 Y81 F60
M05
G90 G1 X28.4 Y80.9 F500
M03 S192
G90 G1 X35.1 Y80.9 F60
M05
G90 G1 X35 Y80.8 F500
M03 S192
G90 G1 X28.4 Y80.8 F60
M05
G90 G1 X28.4 Y80.7 F500
M03 S192
G90 G1 X35 Y80.7 F60
M05
G90 G1 X34.9 Y80.6 F500
M03 S192
G90 G1 X28.3 Y80.6 F60
M05
G90 G1 X28.3 Y80.5 F500
M03 S192
G90 G1 X34.8 Y80.5 F60
M05
G90 G1 X34.8 Y80.4 F500
M03 S192
G90 G1 X28.3 Y80.4 F60
M05
G90 G1 X28.2 Y80.3 F500
M03 S192
G90 G1 X34.8 Y80.3 F60
M05
G90 G1 X34.7 Y80.2 F500
M03 S192
G90 G1 X28.2 Y80.2 F60
M05
G90 G1 X28.2 Y80.1 F500
M03 S192
G90 G1 X34.6 Y80.1 F60
M05
G90 G1 X34.6 Y80 F500
M03 S192
G90 G1 X28.2 Y80 F60
M05
G90 G1 X28.2 Y79.9 F500
M03 S192
G90 G1 X34.6 Y79.9 F60
M05
G90 G1 X34.6 Y79.8 F500
M03 S192
G90 G1 X28.2 Y79.8 F60
M05
G90 G1 X28.2 Y79.7 F500
M03 S192
G90 G1 X34.5 Y79.7 F60
M05
G90 G1 X34.5 Y79.6 F500
M03 S192
G90 G1 X28.2 Y79.6 F60
M05
G90 G1 X28.2 Y79.5 F500
M03 S192
G90 G1 X34.4 Y79.5 F60
M05
G90 G1 X34.4 Y79.4 F500
M03 S192
G90 G1 X28.1 Y79.4 F60
M05
G90 G1 X28.1 Y79.3 F500
M03 S192
G90 G1 X34.4 Y79.3 F60
M05
G90 G1 X34.4 Y79.2 F500
M03 S192
G90 G1 X28 Y79.2 F60
M05
G90 G1 X27.9 Y79.1 F500
M03 S192
G90 G1 X34.4 Y79.1 F60
M05
G90 G1 X34.4 Y79 F500
M03 S192
G90 G1 X22.4 Y79 F60
M05
G90 G1 X22 Y78.9 F500
M03 S192
G90 G1 X34.4 Y78.9 F60
M05
G90 G1 X34.3 Y78.8 F500
M03 S192
G90 G1 X21.6 Y78.8 F60
M05
G90 G1 X21.4 Y78.7 F500
M03 S192
G90 G1 X34.3 Y78.7 F60
M05
G90 G1 X34.3 Y78.6 F500
M03 S192
G90 G1 X21 Y78.6 F60
M05
G90 G1 X20.9 Y78.5 F500
M03 S192
G90 G1 X34.3 Y78.5 F60
M05
G90 G1 X34.3 Y78.4 F500
M03 S192
G90 G1 X20.7 Y78.4 F60
M05
G90 G1 X20.6 Y78.3 F500
M03 S192
G90 G1 X34.3 Y78.3 F60
M05
G90 G1 X34.3 Y78.2 F500
M03 S192
G90 G1 X20.4 Y78.2 F60
M05
G90 G1 X20.2 Y78.1 F500
M03 S192
G90 G1 X34.3 Y78.1 F60
M05
G90 G1 X34.3 Y78 F500
M03 S192
G90 G1 X20.1 Y78 F60
M05
G90 G1 X20 Y77.9 F500
M03 S192
G90 G1 X34.3 Y77.9 F60
M05
G90 G1 X34.3 Y77.8 F500
M03 S192
G90 G1 X19.9 Y77.8 F60
M05
G90 G1 X19.8 Y77.7 F500
M03 S192
G90 G1 X34.3 Y77.7 F60
M05
G90 G1 X34.3 Y77.6 F500
M03 S192
G90 G1 X19.6 Y77.6 F60
M05
G90 G1 X19.6 Y77.5 F500
M03 S192
G90 G1 X34.3 Y77.5 F60
M05
G90 G1 X34.4 Y77.4 F500
M03 S192
G90 G1 X19.5 Y77.4 F60
M05
G90 G1 X19.4 Y77.3 F500
M03 S192
G90 G1 X34.4 Y77.3 F60
M05
G90 G1 X34.4 Y77.2 F500
M03 S192
G90 G1 X19.3 Y77.2 F60
M05
G90 G1 X19.2 Y77.1 F500
M03 S192
G90 G1 X34.4 Y77.1 F60
M05
G90 G1 X34.4 Y77 F500
M03 S192
G90 G1 X19.2 Y77 F60
M05
G90 G1 X19.1 Y76.9 F500
M03 S192
G90 G1 X34.4 Y76.9 F60
M05
G90 G1 X34.4 Y76.8 F500
M03 S192
G90 G1 X19 Y76.8 F60
M05
G90 G1 X19 Y76.7 F500
M03 S192
G90 G1 X34.5 Y76.7 F60
M05
G90 G1 X34.5 Y76.6 F500
M03 S192
G90 G1 X19 Y76.6 F60
M05
G90 G1 X18.9 Y76.5 F500
M03 S192
G90 G1 X34.6 Y76.5 F60
M05
G90 G1 X34.6 Y76.4 F500
M03 S192
G90 G1 X18.8 Y76.4 F60
M05
G90 G1 X18.8 Y76.3 F500
M03 S192
G90 G1 X34.6 Y76.3 F60
M05
G90 G1 X34.6 Y76.2 F500
M03 S192
G90 G1 X18.8 Y76.2 F60
M05
G90 G1 X18.7 Y76.1 F500
M03 S192
G90 G1 X34.7 Y76.1 F60
M05
G90 G1 X34.8 Y76 F500
M03 S192
G90 G1 X18.6 Y76 F60
M05
G90 G1 X18.6 Y75.9 F500
M03 S192
G90 G1 X34.8 Y75.9 F60
M05
G90 G1 X34.8 Y75.8 F500
M03 S192
G90 G1 X18.6 Y75.8 F60
M05
G90 G1 X18.6 Y75.7 F500
M03 S192
G90 G1 X34.9 Y75.7 F60
M05
G90 G1 X35 Y75.6 F500
M03 S192
G90 G1 X18.6 Y75.6 F60
M05
G90 G1 X18.5 Y75.5 F500
M03 S192
G90 G1 X35 Y75.5 F60
M05
G90 G1 X35 Y75.4 F500
M03 S192
G90 G1 X18.5 Y75.4 F60
M05
G90 G1 X18.5 Y75.3 F500
M03 S192
G90 G1 X35.1 Y75.3 F60
M05
G90 G1 X35.2 Y75.2 F500
M03 S192
G90 G1 X18.4 Y75.2 F60
M05
G90 G1 X18.4 Y75.1 F500
M03 S192
G90 G1 X35.3 Y75.1 F60
M05
G90 G1 X35.4 Y75 F500
M03 S192
G90 G1 X18.4 Y75 F60
M05
G90 G1 X18.4 Y74.9 F500
M03 S192
G90 G1 X35.5 Y74.9 F60
M05
G90 G1 X35.6 Y74.8 F500
M03 S192
G90 G1 X18.4 Y74.8 F60
M05
G90 G1 X18.4 Y74.7 F500
M03 S192
G90 G1 X35.6 Y74.7 F60
M05
G90 G1 X35.7 Y74.6 F500
M03 S192
G90 G1 X18.4 Y74.6 F60
M05
G90 G1 X18.4 Y74.5 F500
M03 S192
G90 G1 X35.8 Y74.5 F60
M05
G90 G1 X35.9 Y74.4 F500
M03 S192
G90 G1 X18.4 Y74.4 F60
M05
G90 G1 X18.4 Y74.3 F500
M03 S192
G90 G1 X36 Y74.3 F60
M05
G90 G1 X36.1 Y74.2 F500
M03 S192
G90 G1 X18.4 Y74.2 F60
M05
G90 G1 X18.4 Y74.1 F500
M03 S192
G90 G1 X36.3 Y74.1 F60
M05
G90 G1 X36.4 Y74 F500
M03 S192
G90 G1 X18.4 Y74 F60
M05
G90 G1 X18.4 Y73.9 F500
M03 S192
G90 G1 X36.5 Y73.9 F60
M05
G90 G1 X36.7 Y73.8 F500
M03 S192
G90 G1 X18.4 Y73.8 F60
M05
G90 G1 X18.4 Y73.7 F500
M03 S192
G90 G1 X36.8 Y73.7 F60
M05
G90 G1 X37 Y73.6 F500
M03 S192
G90 G1 X18.4 Y73.6 F60
M05
G90 G1 X18.4 Y73.5 F500
M03 S192
G90 G1 X37.2 Y73.5 F60
M05
G90 G1 X37.4 Y73.4 F500
M03 S192
G90 G1 X18.4 Y73.4 F60
M05
G90 G1 X18.5 Y73.3 F500
M03 S192
G90 G1 X37.7 Y73.3 F60
M05
G90 G1 X37.8 Y73.2 F500
M03 S192
G90 G1 X18.5 Y73.2 F60
M05
G90 G1 X18.6 Y73.1 F500
M03 S192
G90 G1 X38.4 Y73.1 F60
M05
G90 G1 X38.6 Y73 F500
M03 S192
G90 G1 X18.6 Y73 F60
M05
G90 G1 X29.5 Y83.5 F500
M03 S192
G90 G1 X48.5 Y83.5 F60
M05
G90 G1 X48.5 Y83.6 F500
M03 S192
G90 G1 X29.6 Y83.6 F60
M05
G90 G1 X29.6 Y83.7 F500
M03 S192
G90 G1 X48.4 Y83.7 F60
M05
G90 G1 X48.3 Y83.8 F500
M03 S192
G90 G1 X29.6 Y83.8 F60
M05
G90 G1 X29.7 Y83.9 F500
M03 S192
G90 G1 X48.3 Y83.9 F60
M05
G90 G1 X48.2 Y84 F500
M03 S192
G90 G1 X29.8 Y84 F60
M05
G90 G1 X29.8 Y84.1 F500
M03 S192
G90 G1 X48.2 Y84.1 F60
M05
G90 G1 X48.1 Y84.2 F500
M03 S192
G90 G1 X29.9 Y84.2 F60
M05
G90 G1 X30 Y84.3 F500
M03 S192
G90 G1 X48 Y84.3 F60
M05
G90 G1 X47.9 Y84.4 F500
M03 S192
G90 G1 X30.1 Y84.4 F60
M05
G90 G1 X30.2 Y84.5 F500
M03 S192
G90 G1 X47.9 Y84.5 F60
M05
G90 G1 X47.8 Y84.6 F500
M03 S192
G90 G1 X30.2 Y84.6 F60
M05
G90 G1 X30.3 Y84.7 F500
M03 S192
G90 G1 X47.7 Y84.7 F60
M05
G90 G1 X47.7 Y84.8 F500
M03 S192
G90 G1 X30.4 Y84.8 F60
M05
G90 G1 X30.5 Y84.9 F500
M03 S192
G90 G1 X47.6 Y84.9 F60
M05
G90 G1 X47.5 Y85 F500
M03 S192
G90 G1 X30.6 Y85 F60
M05
G90 G1 X30.6 Y85.1 F500
M03 S192
G90 G1 X47.4 Y85.1 F60
M05
G90 G1 X47.3 Y85.2 F500
M03 S192
G90 G1 X30.7 Y85.2 F60
M05
G90 G1 X30.8 Y85.3 F500
M03 S192
G90 G1 X47.2 Y85.3 F60
M05
G90 G1 X47.1 Y85.4 F500
M03 S192
G90 G1 X30.9 Y85.4 F60
M05
G90 G1 X31 Y85.5 F500
M03 S192
G90 G1 X47 Y85.5 F60
M05
G90 G1 X46.9 Y85.6 F500
M03 S192
G90 G1 X31.1 Y85.6 F60
M05
G90 G1 X31.2 Y85.7 F500
M03 S192
G90 G1 X46.8 Y85.7 F60
M05
G90 G1 X46.7 Y85.8 F500
M03 S192
G90 G1 X31.3 Y85.8 F60
M05
G90 G1 X31.5 Y85.9 F500
M03 S192
G90 G1 X46.6 Y85.9 F60
M05
G90 G1 X46.5 Y86 F500
M03 S192
G90 G1 X31.6 Y86 F60
M05
G90 G1 X31.7 Y86.1 F500
M03 S192
G90 G1 X46.3 Y86.1 F60
M05
G90 G1 X46.2 Y86.2 F500
M03 S192
G90 G1 X31.8 Y86.2 F60
M05
G90 G1 X31.9 Y86.3 F500
M03 S192
G90 G1 X46.1 Y86.3 F60
M05
G90 G1 X46 Y86.4 F500
M03 S192
G90 G1 X32 Y86.4 F60
M05
G90 G1 X32.2 Y86.5 F500
M03 S192
G90 G1 X45.8 Y86.5 F60
M05
G90 G1 X45.7 Y86.6 F500
M03 S192
G90 G1 X32.3 Y86.6 F60
M05
G90 G1 X32.5 Y86.7 F500
M03 S192
G90 G1 X45.6 Y86.7 F60
M05
G90 G1 X45.5 Y86.8 F500
M03 S192
G90 G1 X32.6 Y86.8 F60
M05
G90 G1 X32.8 Y86.9 F500
M03 S192
G90 G1 X45.2 Y86.9 F60
M05
G90 G1 X45.1 Y87 F500
M03 S192
G90 G1 X32.9 Y87 F60
M05
G90 G1 X33.1 Y87.1 F500
M03 S192
G90 G1 X44.9 Y87.1 F60
M05
G90 G1 X44.8 Y87.2 F500
M03 S192
G90 G1 X33.2 Y87.2 F60
M05
G90 G1 X33.5 Y87.3 F500
M03 S192
G90 G1 X44.6 Y87.3 F60
M05
G90 G1 X44.4 Y87.4 F500
M03 S192
G90 G1 X33.6 Y87.4 F60
M05
G90 G1 X33.9 Y87.5 F500
M03 S192
G90 G1 X44.2 Y87.5 F60
M05
G90 G1 X44 Y87.6 F500
M03 S192
G90 G1 X34 Y87.6 F60
M05
G90 G1 X34.3 Y87.7 F500
M03 S192
G90 G1 X43.8 Y87.7 F60
M05
G90 G1 X43.5 Y87.8 F500
M03 S192
G90 G1 X34.5 Y87.8 F60
M05
G90 G1 X34.7 Y87.9 F500
M03 S192
G90 G1 X43.3 Y87.9 F60
M05
G90 G1 X43 Y88 F500
M03 S192
G90 G1 X35 Y88 F60
M05
G90 G1 X35.3 Y88.1 F500
M03 S192
G90 G1 X42.7 Y88.1 F60
M05
G90 G1 X42.4 Y88.2 F500
M03 S192
G90 G1 X35.6 Y88.2 F60
M05
G90 G1 X36 Y88.3 F500
M03 S192
G90 G1 X42 Y88.3 F60
M05
G90 G1 X41.5 Y88.4 F500
M03 S192
G90 G1 X36.5 Y88.4 F60
M05
G90 G1 X37.1 Y88.5 F500
M03 S192
G90 G1 X41 Y88.5 F60
M05
G90 G1 X53 Y55.5 F500
M03 S192
G90 G1 X81.7 Y55.5 F60
M05
G90 G1 X81.7 Y55.6 F500
M03 S192
G90 G1 X53.7 Y55.6 F60
M05
G90 G1 X55.4 Y55.7 F500
M03 S192
G90 G1 X81.7 Y55.7 F60
M05
G90 G1 X81.7 Y55.8 F500
M03 S192
G90 G1 X56 Y55.8 F60
M05
G90 G1 X57.5 Y55.9 F500
M03 S192
G90 G1 X81.7 Y55.9 F60
M05
G90 G1 X81.7 Y56 F500
M03 S192
G90 G1 X58 Y56 F60
M05
G90 G1 X59.3 Y56.1 F500
M03 S192
G90 G1 X81.7 Y56.1 F60
M05
G90 G1 X81.7 Y56.2 F500
M03 S192
G90 G1 X59.7 Y56.2 F60
M05
G90 G1 X60.9 Y56.3 F500
M03 S192
G90 G1 X81.7 Y56.3 F60
M05
G90 G1 X81.7 Y56.4 F500
M03 S192
G90 G1 X61.3 Y56.4 F60
M05
G90 G1 X62.3 Y56.5 F500
M03 S192
G90 G1 X81.7 Y56.5 F60
M05
G90 G1 X81.7 Y56.6 F500
M03 S192
G90 G1 X62.6 Y56.6 F60
M05
G90 G1 X63.6 Y56.7 F500
M03 S192
G90 G1 X81.7 Y56.7 F60
M05
G90 G1 X81.7 Y56.8 F500
M03 S192
G90 G1 X63.8 Y56.8 F60
M05
G90 G1 X64.7 Y56.9 F500
M03 S192
G90 G1 X81.7 Y56.9 F60
M05
G90 G1 X81.7 Y57 F500
M03 S192
G90 G1 X65 Y57 F60
M05
G90 G1 X65.7 Y57.1 F500
M03 S192
G90 G1 X81.7 Y57.1 F60
M05
G90 G1 X81.7 Y57.2 F500
M03 S192
G90 G1 X66 Y57.2 F60
M05
G90 G1 X66.6 Y57.3 F500
M03 S192
G90 G1 X81.7 Y57.3 F60
M05
G90 G1 X81.7 Y57.4 F500
M03 S192
G90 G1 X66.9 Y57.4 F60
M05
G90 G1 X67.6 Y57.5 F500
M03 S192
G90 G1 X81.7 Y57.5 F60
M05
G90 G1 X81.7 Y57.6 F500
M03 S192
G90 G1 X67.8 Y57.6 F60
M05
G90 G1 X68.4 Y57.7 F500
M03 S192
G90 G1 X81.7 Y57.7 F60
M05
G90 G1 X81.7 Y57.8 F500
M03 S192
G90 G1 X68.6 Y57.8 F60
M05
G90 G1 X69 Y57.9 F500
M03 S192
G90 G1 X81.7 Y57.9 F60
M05
G90 G1 X81.7 Y58 F500
M03 S192
G90 G1 X69.4 Y58 F60
M05
G90 G1 X69.8 Y58.1 F500
M03 S192
G90 G1 X81.7 Y58.1 F60
M05
G90 G1 X81.7 Y58.2 F500
M03 S192
G90 G1 X70.1 Y58.2 F60
M05
G90 G1 X70.4 Y58.3 F500
M03 S192
G90 G1 X81.7 Y58.3 F60
M05
G90 G1 X81.7 Y58.4 F500
M03 S192
G90 G1 X70.8 Y58.4 F60
M05
G90 G1 X71 Y58.5 F500
M03 S192
G90 G1 X81.7 Y58.5 F60
M05
G90 G1 X81.7 Y58.6 F500
M03 S192
G90 G1 X71.4 Y58.6 F60
M05
G90 G1 X71.7 Y58.7 F500
M03 S192
G90 G1 X81.7 Y58.7 F60
M05
G90 G1 X81.7 Y58.8 F500
M03 S192
G90 G1 X72 Y58.8 F60
M05
G90 G1 X72.2 Y58.9 F500
M03 S192
G90 G1 X81.7 Y58.9 F60
M05
G90 G1 X81.7 Y59 F500
M03 S192
G90 G1 X72.6 Y59 F60
M05
G90 G1 X72.8 Y59.1 F500
M03 S192
G90 G1 X81.7 Y59.1 F60
M05
G90 G1 X81.7 Y59.2 F500
M03 S192
G90 G1 X73.2 Y59.2 F60
M05
G90 G1 X73.4 Y59.3 F500
M03 S192
G90 G1 X81.7 Y59.3 F60
M05
G90 G1 X81.7 Y59.4 F500
M03 S192
G90 G1 X73.7 Y59.4 F60
M05
G90 G1 X73.9 Y59.5 F500
M03 S192
G90 G1 X81.7 Y59.5 F60
M05
G90 G1 X81.7 Y59.6 F500
M03 S192
G90 G1 X74.2 Y59.6 F60
M05
G90 G1 X74.3 Y59.7 F500
M03 S192
G90 G1 X81.7 Y59.7 F60
M05
G90 G1 X81.7 Y59.8 F500
M03 S192
G90 G1 X74.7 Y59.8 F60
M05
G90 G1 X74.8 Y59.9 F500
M03 S192
G90 G1 X81.7 Y59.9 F60
M05
G90 G1 X81.7 Y60 F500
M03 S192
G90 G1 X75.2 Y60 F60
M05
G90 G1 X75.3 Y60.1 F500
M03 S192
G90 G1 X81.7 Y60.1 F60
M05
G90 G1 X81.7 Y60.2 F500
M03 S192
G90 G1 X75.6 Y60.2 F60
M05
G90 G1 X75.7 Y60.3 F500
M03 S192
G90 G1 X81.7 Y60.3 F60
M05
G90 G1 X81.7 Y60.4 F500
M03 S192
G90 G1 X76 Y60.4 F60
M05
G90 G1 X76.1 Y60.5 F500
M03 S192
G90 G1 X81.7 Y60.5 F60
M05
G90 G1 X81.7 Y60.6 F500
M03 S192
G90 G1 X76.5 Y60.6 F60
M05
G90 G1 X76.6 Y60.7 F500
M03 S192
G90 G1 X81.7 Y60.7 F60
M05
G90 G1 X81.7 Y60.8 F500
M03 S192
G90 G1 X76.9 Y60.8 F60
M05
G90 G1 X77 Y60.9 F500
M03 S192
G90 G1 X81.7 Y60.9 F60
M05
G90 G1 X81.7 Y61 F500
M03 S192
G90 G1 X77.2 Y61 F60
M05
G90 G1 X77.3 Y61.1 F500
M03 S192
G90 G1 X81.7 Y61.1 F60
M05
G90 G1 X81.7 Y61.2 F500
M03 S192
G90 G1 X77.6 Y61.2 F60
M05
G90 G1 X77.7 Y61.3 F500
M03 S192
G90 G1 X81.7 Y61.3 F60
M05
G90 G1 X81.7 Y61.4 F500
M03 S192
G90 G1 X78 Y61.4 F60
M05
G90 G1 X78.1 Y61.5 F500
M03 S192
G90 G1 X81.7 Y61.5 F60
M05
G90 G1 X81.7 Y61.6 F500
M03 S192
G90 G1 X78.4 Y61.6 F60
M05
G90 G1 X78.5 Y61.7 F500
M03 S192
G90 G1 X81.7 Y61.7 F60
M05
G90 G1 X81.7 Y61.8 F500
M03 S192
G90 G1 X78.6 Y61.8 F60
M05
G90 G1 X78.8 Y61.9 F500
M03 S192
G90 G1 X81.7 Y61.9 F60
M05
G90 G1 X81.7 Y62 F500
M03 S192
G90 G1 X79 Y62 F60
M05
G90 G1 X79.1 Y62.1 F500
M03 S192
G90 G1 X81.7 Y62.1 F60
M05
G90 G1 X81.7 Y62.2 F500
M03 S192
G90 G1 X79.3 Y62.2 F60
M05
G90 G1 X79.4 Y62.3 F500
M03 S192
G90 G1 X81.7 Y62.3 F60
M05
G90 G1 X81.7 Y62.4 F500
M03 S192
G90 G1 X79.6 Y62.4 F60
M05
G90 G1 X79.7 Y62.5 F500
M03 S192
G90 G1 X81.7 Y62.5 F60
M05
G90 G1 X81.7 Y62.6 F500
M03 S192
G90 G1 X79.9 Y62.6 F60
M05
G90 G1 X80.1 Y62.7 F500
M03 S192
G90 G1 X81.7 Y62.7 F60
M05
G90 G1 X81.7 Y62.8 F500
M03 S192
G90 G1 X80.2 Y62.8 F60
M05
G90 G1 X80.3 Y62.9 F500
M03 S192
G90 G1 X81.7 Y62.9 F60
M05
G90 G1 X81.7 Y63 F500
M03 S192
G90 G1 X80.5 Y63 F60
M05
G90 G1 X80.6 Y63.1 F500
M03 S192
G90 G1 X81.7 Y63.1 F60
M05
G90 G1 X81.7 Y63.2 F500
M03 S192
G90 G1 X80.8 Y63.2 F60
M05
G90 G1 X80.9 Y63.3 F500
M03 S192
G90 G1 X81.7 Y63.3 F60
M05
G90 G1 X81.7 Y63.4 F500
M03 S192
G90 G1 X81 Y63.4 F60
M05
G90 G1 X81.2 Y63.5 F500
M03 S192
G90 G1 X81.7 Y63.5 F60
M05
G90 G1 X81.7 Y63.6 F500
M03 S192
G90 G1 X81.3 Y63.6 F60
M05
G90 G1 X81.5 Y63.7 F500
M03 S192
G90 G1 X81.7 Y63.7 F60
M05
G90 G1 X81.7 Y63.8 F500
M03 S192
G90 G1 X81.6 Y63.8 F60
M05
G90 G1 X81.7 Y63.9 F500
M03 S192
G90 G1 X81.7 Y63.9 F60
M05
G90 G1 X63.8 Y22.4 F500
M03 S192
G90 G1 X58.3 Y22.4 F60
M05
G90 G1 X58.4 Y22.3 F500
M03 S192
G90 G1 X63.8 Y22.3 F60
M05
G90 G1 X63.8 Y22.2 F500
M03 S192
G90 G1 X58.4 Y22.2 F60
M05
G90 G1 X58.4 Y22.1 F500
M03 S192
G90 G1 X63.8 Y22.1 F60
M05
G90 G1 X63.8 Y22 F500
M03 S192
G90 G1 X58.4 Y22 F60
M05
G90 G1 X58.4 Y21.9 F500
M03 S192
G90 G1 X63.8 Y21.9 F60
M05
G90 G1 X63.8 Y21.8 F500
M03 S192
G90 G1 X58.4 Y21.8 F60
M05
G90 G1 X58.4 Y21.7 F500
M03 S192
G90 G1 X63.8 Y21.7 F60
M05
G90 G1 X63.8 Y21.6 F500
M03 S192
G90 G1 X58.4 Y21.6 F60
M05
G90 G1 X58.4 Y21.5 F500
M03 S192
G90 G1 X63.8 Y21.5 F60
M05
G90 G1 X63.8 Y21.4 F500
M03 S192
G90 G1 X58.4 Y21.4 F60
M05
G90 G1 X58.4 Y21.3 F500
M03 S192
G90 G1 X63.8 Y21.3 F60
M05
G90 G1 X63.8 Y21.2 F500
M03 S192
G90 G1 X58.4 Y21.2 F60
M05
G90 G1 X58.4 Y21.1 F500
M03 S192
G90 G1 X63.8 Y21.1 F60
M05
G90 G1 X63.8 Y21 F500
M03 S192
G90 G1 X58.4 Y21 F60
M05
G90 G1 X58.4 Y20.9 F500
M03 S192
G90 G1 X63.8 Y20.9 F60
M05
G90 G1 X63.8 Y20.8 F500
M03 S192
G90 G1 X58.4 Y20.8 F60
M05
G90 G1 X58.4 Y20.7 F500
M03 S192
G90 G1 X63.8 Y20.7 F60
M05
G90 G1 X63.8 Y20.6 F500
M03 S192
G90 G1 X58.4 Y20.6 F60
M05
G90 G1 X58.4 Y20.5 F500
M03 S192
G90 G1 X63.8 Y20.5 F60
M05
G90 G1 X63.8 Y20.4 F500
M03 S192
G90 G1 X58.4 Y20.4 F60
M05
G90 G1 X58.4 Y20.3 F500
M03 S192
G90 G1 X63.8 Y20.3 F60
M05
G90 G1 X63.8 Y20.2 F500
M03 S192
G90 G1 X58.4 Y20.2 F60
M05
G90 G1 X58.4 Y20.1 F500
M03 S192
G90 G1 X63.8 Y20.1 F60
M05
G90 G1 X63.8 Y20 F500
M03 S192
G90 G1 X58.4 Y20 F60
M05
G90 G1 X58.4 Y19.9 F500
M03 S192
G90 G1 X63.8 Y19.9 F60
M05
G90 G1 X63.8 Y19.8 F500
M03 S192
G90 G1 X58.4 Y19.8 F60
M05
G90 G1 X58.4 Y19.7 F500
M03 S192
G90 G1 X63.8 Y19.7 F60
M05
G90 G1 X63.8 Y19.6 F500
M03 S192
G90 G1 X58.4 Y19.6 F60
M05
G90 G1 X58.4 Y19.5 F500
M03 S192
G90 G1 X63.8 Y19.5 F60
M05
G90 G1 X63.8 Y19.4 F500
M03 S192
G90 G1 X58.4 Y19.4 F60
M05
G90 G1 X58.4 Y19.3 F500
M03 S192
G90 G1 X63.8 Y19.3 F60
M05
G90 G1 X63.8 Y19.2 F500
M03 S192
G90 G1 X58.4 Y19.2 F60
M05
G90 G1 X58.4 Y19.1 F500
M03 S192
G90 G1 X63.8 Y19.1 F60
M05
G90 G1 X63.8 Y19 F500
M03 S192
G90 G1 X58.4 Y19 F60
M05
G90 G1 X58.4 Y18.9 F500
M03 S192
G90 G1 X63.8 Y18.9 F60
M05
G90 G1 X63.8 Y18.8 F500
M03 S192
G90 G1 X58.4 Y18.8 F60
M05
G90 G1 X58.4 Y18.7 F500
M03 S192
G90 G1 X63.8 Y18.7 F60
M05
G90 G1 X63.8 Y18.6 F500
M03 S192
G90 G1 X58.4 Y18.6 F60
M05
G90 G1 X58.4 Y18.5 F500
M03 S192
G90 G1 X63.8 Y18.5 F60
M05
G90 G1 X63.8 Y18.4 F500
M03 S192
G90 G1 X58.4 Y18.4 F60
M05
G90 G1 X58.4 Y18.3 F500
M03 S192
G90 G1 X63.8 Y18.3 F60
M05
G90 G1 X63.8 Y18.2 F500
M03 S192
G90 G1 X58.4 Y18.2 F60
M05
G90 G1 X58.4 Y18.1 F500
M03 S192
G90 G1 X63.8 Y18.1 F60
M05
G90 G1 X63.8 Y18 F500
M03 S192
G90 G1 X58.4 Y18 F60
M05
G90 G1 X58.4 Y17.9 F500
M03 S192
G90 G1 X63.8 Y17.9 F60
M05
G90 G1 X63.8 Y17.8 F500
M03 S192
G90 G1 X58.4 Y17.8 F60
M05
G90 G1 X58.4 Y17.7 F500
M03 S192
G90 G1 X63.8 Y17.7 F60
M05
G90 G1 X63.8 Y17.6 F500
M03 S192
G90 G1 X58.4 Y17.6 F60
M05
G90 G1 X58.4 Y17.5 F500
M03 S192
G90 G1 X63.8 Y17.5 F60
M05
G90 G1 X63.8 Y17.4 F500
M03 S192
G90 G1 X58.4 Y17.4 F60
M05
G90 G1 X58.4 Y17.3 F500
M03 S192
G90 G1 X63.8 Y17.3 F60
M05
G90 G1 X63.8 Y17.2 F500
M03 S192
G90 G1 X58.4 Y17.2 F60
M05
G90 G1 X58.4 Y17.1 F500
M03 S192
G90 G1 X63.8 Y17.1 F60
M05
G90 G1 X63.8 Y17 F500
M03 S192
G90 G1 X58.4 Y17 F60
M05
G90 G1 X58.4 Y16.9 F500
M03 S192
G90 G1 X63.8 Y16.9 F60
M05
G90 G1 X63.8 Y16.8 F500
M03 S192
G90 G1 X58.4 Y16.8 F60
M05
G90 G1 X58.4 Y16.7 F500
M03 S192
G90 G1 X63.8 Y16.7 F60
M05
G90 G1 X63.8 Y16.6 F500
M03 S192
G90 G1 X58.4 Y16.6 F60
M05
G90 G1 X58.4 Y16.5 F500
M03 S192
G90 G1 X63.8 Y16.5 F60
M05
G90 G1 X63.8 Y16.4 F500
M03 S192
G90 G1 X58.4 Y16.4 F60
M05
G90 G1 X58.5 Y16.3 F500
M03 S192
G90 G1 X63.8 Y16.3 F60
M05
G90 G1 X63.8 Y16.2 F500
M03 S192
G90 G1 X58.5 Y16.2 F60
M05
G90 G1 X58.5 Y16.1 F500
M03 S192
G90 G1 X63.8 Y16.1 F60
M05
G90 G1 X63.8 Y16 F500
M03 S192
G90 G1 X58.5 Y16 F60
M05
G90 G1 X58.4 Y15.9 F500
M03 S192
G90 G1 X63.9 Y15.9 F60
M05
G90 G1 X56.9 Y22.4 F500
M03 S192
G90 G1 X53 Y22.4 F60
M05
;
; INFILL END
;
;
; IMAGE END
;
G28
;
; ##############################################################################
; #                                                                            #
; #                            GCode Finishes Here!                            #
; #                                                                            #
; ##############################################################################
